EESchema Schematic File Version 4
EELAYER 30 0
EELAYER END
$Descr A4 11693 8268
encoding utf-8
Sheet 1 1
Title "LED display panel"
Date ""
Rev ""
Comp ""
Comment1 ""
Comment2 ""
Comment3 ""
Comment4 ""
$EndDescr
$Comp
L time-traveller:HT16K33 U1
U 1 1 59C6E24E
P 2200 2600
F 0 "U1" H 1850 2350 60  0000 C CNN
F 1 "HT16K33" H 1850 2650 60  0000 C CNN
F 2 "bttf-display:HT16433-BB" H 1850 2650 60  0001 C CNN
F 3 "" H 1850 2650 60  0001 C CNN
	1    2200 2600
	1    0    0    -1  
$EndComp
$Comp
L bttf-display-rescue:CONN_01X04 J1
U 1 1 59C6E6E8
P 2450 4900
F 0 "J1" H 2450 5150 50  0000 C CNN
F 1 "CONN_01X04" V 2550 4900 50  0000 C CNN
F 2 "Connectors_JST:JST_PH_B4B-PH-K_04x2.00mm_Straight" H 2450 4900 50  0001 C CNN
F 3 "" H 2450 4900 50  0001 C CNN
	1    2450 4900
	0    -1   -1   0   
$EndComp
$Comp
L power:GND #PWR01
U 1 1 59C6E83E
P 1350 5500
F 0 "#PWR01" H 1350 5250 50  0001 C CNN
F 1 "GND" H 1350 5350 50  0000 C CNN
F 2 "" H 1350 5500 50  0001 C CNN
F 3 "" H 1350 5500 50  0001 C CNN
	1    1350 5500
	-1   0    0    1   
$EndComp
$Comp
L power:+5V #PWR02
U 1 1 59C6E890
P 1550 5500
F 0 "#PWR02" H 1550 5350 50  0001 C CNN
F 1 "+5V" H 1550 5650 50  0000 C CNN
F 2 "" H 1550 5500 50  0001 C CNN
F 3 "" H 1550 5500 50  0001 C CNN
	1    1550 5500
	1    0    0    -1  
$EndComp
$Comp
L power:+5V #PWR03
U 1 1 59C6E93F
P 1050 1350
F 0 "#PWR03" H 1050 1200 50  0001 C CNN
F 1 "+5V" H 1050 1490 50  0000 C CNN
F 2 "" H 1050 1350 50  0001 C CNN
F 3 "" H 1050 1350 50  0001 C CNN
	1    1050 1350
	1    0    0    -1  
$EndComp
$Comp
L power:GND #PWR04
U 1 1 59C6E9A5
P 1050 4050
F 0 "#PWR04" H 1050 3800 50  0001 C CNN
F 1 "GND" H 1050 3900 50  0000 C CNN
F 2 "" H 1050 4050 50  0001 C CNN
F 3 "" H 1050 4050 50  0001 C CNN
	1    1050 4050
	1    0    0    -1  
$EndComp
Entry Wire Line
	3500 1450 3600 1550
Entry Wire Line
	3500 1550 3600 1650
Entry Wire Line
	3500 1650 3600 1750
Entry Wire Line
	3500 1750 3600 1850
Entry Wire Line
	3500 1850 3600 1950
Entry Wire Line
	3500 1950 3600 2050
Entry Wire Line
	3500 2050 3600 2150
Entry Wire Line
	3500 2150 3600 2250
Entry Wire Line
	3500 2250 3600 2350
Entry Wire Line
	3500 2350 3600 2450
Entry Wire Line
	3500 2450 3600 2550
Entry Wire Line
	3500 2550 3600 2650
Entry Wire Line
	3500 2650 3600 2750
Entry Wire Line
	3500 2750 3600 2850
Entry Wire Line
	3500 2850 3600 2950
Entry Wire Line
	3500 2950 3600 3050
Text Label 3150 1450 0    60   ~ 0
ROW0
Text Label 3150 1550 0    60   ~ 0
ROW1
Text Label 3150 1650 0    60   ~ 0
ROW2
Text Label 3150 1750 0    60   ~ 0
ROW3
Text Label 3150 1850 0    60   ~ 0
ROW4
Text Label 3150 1950 0    60   ~ 0
ROW5
Text Label 3150 2050 0    60   ~ 0
ROW6
Text Label 3150 2150 0    60   ~ 0
ROW7
Text Label 3150 2250 0    60   ~ 0
ROW8
Text Label 3150 2350 0    60   ~ 0
ROW9
Text Label 3150 2450 0    60   ~ 0
ROW10
Text Label 3150 2550 0    60   ~ 0
ROW11
Text Label 3150 2650 0    60   ~ 0
ROW12
Text Label 3150 2750 0    60   ~ 0
ROW13
Text Label 3150 2850 0    60   ~ 0
ROW14
Text Label 3150 2950 0    60   ~ 0
ROW15
Text Label 3450 3250 2    60   ~ 0
COM0
Text Label 3450 3350 2    60   ~ 0
COM1
Text Label 3450 3450 2    60   ~ 0
COM2
Text Label 3450 3550 2    60   ~ 0
COM3
Text Label 3450 3650 2    60   ~ 0
COM4
Text Label 3450 3750 2    60   ~ 0
COM5
Text Label 3450 3850 2    60   ~ 0
COM6
Text Label 3450 3950 2    60   ~ 0
COM7
Text Label 3900 1050 0    60   ~ 0
ROW0
Text Label 3900 1150 0    60   ~ 0
ROW1
Text Label 3900 1250 0    60   ~ 0
ROW2
Text Label 3900 1350 0    60   ~ 0
ROW3
Text Label 3900 1450 0    60   ~ 0
ROW4
Text Label 3900 1550 0    60   ~ 0
ROW5
Text Label 3900 1650 0    60   ~ 0
ROW6
Text Label 3900 2050 0    60   ~ 0
ROW8
Text Label 3900 2150 0    60   ~ 0
ROW9
Text Label 3900 2250 0    60   ~ 0
ROW10
Text Label 3900 2350 0    60   ~ 0
ROW11
Text Label 3900 2450 0    60   ~ 0
ROW12
Text Label 3900 2550 0    60   ~ 0
ROW13
Text Label 3900 2650 0    60   ~ 0
ROW14
Text Label 3900 3050 0    60   ~ 0
ROW0
Text Label 3900 3150 0    60   ~ 0
ROW1
Text Label 3900 3250 0    60   ~ 0
ROW2
Text Label 3900 3350 0    60   ~ 0
ROW3
Text Label 3900 3450 0    60   ~ 0
ROW4
Text Label 3900 3550 0    60   ~ 0
ROW5
Text Label 3900 3650 0    60   ~ 0
ROW6
Text Label 3900 4050 0    60   ~ 0
ROW8
Text Label 3900 4150 0    60   ~ 0
ROW9
Text Label 3900 4250 0    60   ~ 0
ROW10
Text Label 3900 4350 0    60   ~ 0
ROW11
Text Label 3900 4450 0    60   ~ 0
ROW12
Text Label 3900 4550 0    60   ~ 0
ROW13
Text Label 3900 4650 0    60   ~ 0
ROW14
Entry Wire Line
	3800 950  3900 1050
Entry Wire Line
	3800 1050 3900 1150
Entry Wire Line
	3800 1150 3900 1250
Entry Wire Line
	3800 1250 3900 1350
Entry Wire Line
	3800 1350 3900 1450
Entry Wire Line
	3800 1450 3900 1550
Entry Wire Line
	3800 1550 3900 1650
Entry Wire Line
	3800 1950 3900 2050
Entry Wire Line
	3800 2050 3900 2150
Entry Wire Line
	3800 2150 3900 2250
Entry Wire Line
	3800 2250 3900 2350
Entry Wire Line
	3800 2350 3900 2450
Entry Wire Line
	3800 2450 3900 2550
Entry Wire Line
	3800 2550 3900 2650
Entry Wire Line
	3800 2950 3900 3050
Entry Wire Line
	3800 3050 3900 3150
Entry Wire Line
	3800 3150 3900 3250
Entry Wire Line
	3800 3250 3900 3350
Entry Wire Line
	3800 3350 3900 3450
Entry Wire Line
	3800 3450 3900 3550
Entry Wire Line
	3800 3550 3900 3650
Entry Wire Line
	3800 3950 3900 4050
Entry Wire Line
	3800 4050 3900 4150
Entry Wire Line
	3800 4150 3900 4250
Entry Wire Line
	3800 4250 3900 4350
Entry Wire Line
	3800 4350 3900 4450
Entry Wire Line
	3800 4450 3900 4550
Entry Wire Line
	3800 4550 3900 4650
Text Label 3900 950  0    60   ~ 0
COM0
Text Label 3900 1950 0    60   ~ 0
COM0
Text Label 3900 2950 0    60   ~ 0
COM1
Text Label 3900 3950 0    60   ~ 0
COM1
NoConn ~ 4250 1750
NoConn ~ 4250 2750
NoConn ~ 4250 3750
NoConn ~ 4250 4750
Text Label 3900 5150 0    60   ~ 0
ROW0
Text Label 3900 5250 0    60   ~ 0
ROW1
Text Label 3900 5350 0    60   ~ 0
ROW2
Text Label 3900 5450 0    60   ~ 0
ROW3
Text Label 3900 5550 0    60   ~ 0
ROW4
Text Label 3900 5650 0    60   ~ 0
ROW5
Text Label 3900 5750 0    60   ~ 0
ROW6
Text Label 3900 6150 0    60   ~ 0
ROW8
Text Label 3900 6250 0    60   ~ 0
ROW9
Text Label 3900 6350 0    60   ~ 0
ROW10
Text Label 3900 6450 0    60   ~ 0
ROW11
Text Label 3900 6550 0    60   ~ 0
ROW12
Text Label 3900 6650 0    60   ~ 0
ROW13
Text Label 3900 6750 0    60   ~ 0
ROW14
NoConn ~ 4250 5850
NoConn ~ 4250 6850
Text Label 3900 5050 0    60   ~ 0
COM2
Text Label 3900 6050 0    60   ~ 0
COM2
Entry Wire Line
	3800 5050 3900 5150
Entry Wire Line
	3800 5150 3900 5250
Entry Wire Line
	3800 5250 3900 5350
Entry Wire Line
	3800 5350 3900 5450
Entry Wire Line
	3800 5450 3900 5550
Entry Wire Line
	3800 5550 3900 5650
Entry Wire Line
	3800 5650 3900 5750
Entry Wire Line
	3800 6050 3900 6150
Entry Wire Line
	3800 6150 3900 6250
Entry Wire Line
	3800 6250 3900 6350
Entry Wire Line
	3800 6350 3900 6450
Entry Wire Line
	3800 6450 3900 6550
Entry Wire Line
	3800 6550 3900 6650
Entry Wire Line
	3800 6650 3900 6750
Text Label 5700 1050 0    60   ~ 0
ROW0
Text Label 5700 1150 0    60   ~ 0
ROW1
Text Label 5700 1250 0    60   ~ 0
ROW2
Text Label 5700 1350 0    60   ~ 0
ROW3
Text Label 5700 1450 0    60   ~ 0
ROW4
Text Label 5700 1550 0    60   ~ 0
ROW5
Text Label 5700 1650 0    60   ~ 0
ROW6
Text Label 5700 2050 0    60   ~ 0
ROW8
Text Label 5700 2150 0    60   ~ 0
ROW9
Text Label 5700 2250 0    60   ~ 0
ROW10
Text Label 5700 2350 0    60   ~ 0
ROW11
Text Label 5700 2450 0    60   ~ 0
ROW12
Text Label 5700 2550 0    60   ~ 0
ROW13
Text Label 5700 2650 0    60   ~ 0
ROW14
Text Label 5700 950  0    60   ~ 0
COM3
Text Label 5700 1950 0    60   ~ 0
COM3
NoConn ~ 6100 1750
NoConn ~ 6100 2750
Entry Wire Line
	5600 950  5700 1050
Entry Wire Line
	5600 1050 5700 1150
Entry Wire Line
	5600 1150 5700 1250
Entry Wire Line
	5600 1250 5700 1350
Entry Wire Line
	5600 1350 5700 1450
Entry Wire Line
	5600 1450 5700 1550
Entry Wire Line
	5600 1550 5700 1650
Entry Wire Line
	5600 1950 5700 2050
Entry Wire Line
	5600 2050 5700 2150
Entry Wire Line
	5600 2150 5700 2250
Entry Wire Line
	5600 2250 5700 2350
Entry Wire Line
	5600 2350 5700 2450
Entry Wire Line
	5600 2450 5700 2550
Entry Wire Line
	5600 2550 5700 2650
Text Label 5700 3000 0    60   ~ 0
COM4
Text Label 5700 4000 0    60   ~ 0
COM4
Text Label 5700 3100 0    60   ~ 0
ROW0
Text Label 5700 3200 0    60   ~ 0
ROW1
Text Label 5700 3300 0    60   ~ 0
ROW2
Text Label 5700 3400 0    60   ~ 0
ROW3
Text Label 5700 3500 0    60   ~ 0
ROW4
Text Label 5700 3600 0    60   ~ 0
ROW5
Text Label 5700 3700 0    60   ~ 0
ROW6
Text Label 5700 4100 0    60   ~ 0
ROW8
Text Label 5700 4200 0    60   ~ 0
ROW9
Text Label 5700 4300 0    60   ~ 0
ROW10
Text Label 5700 4400 0    60   ~ 0
ROW11
Text Label 5700 4500 0    60   ~ 0
ROW12
Text Label 5700 4600 0    60   ~ 0
ROW13
Text Label 5700 4700 0    60   ~ 0
ROW14
Entry Wire Line
	5600 3000 5700 3100
Entry Wire Line
	5600 3000 5700 3100
Entry Wire Line
	5600 3100 5700 3200
Entry Wire Line
	5600 3200 5700 3300
Entry Wire Line
	5600 3300 5700 3400
Entry Wire Line
	5600 3400 5700 3500
Entry Wire Line
	5600 3500 5700 3600
Entry Wire Line
	5600 3600 5700 3700
Entry Wire Line
	5600 4000 5700 4100
Entry Wire Line
	5600 4000 5700 4100
Entry Wire Line
	5600 4100 5700 4200
Entry Wire Line
	5600 4200 5700 4300
Entry Wire Line
	5600 4300 5700 4400
Entry Wire Line
	5600 4400 5700 4500
Entry Wire Line
	5600 4500 5700 4600
Entry Wire Line
	5600 4600 5700 4700
NoConn ~ 6100 3800
NoConn ~ 6100 4800
Text Label 7550 950  0    60   ~ 0
ROW0
Text Label 7550 1050 0    60   ~ 0
ROW1
Text Label 7550 1150 0    60   ~ 0
ROW2
Text Label 7550 1250 0    60   ~ 0
ROW3
Text Label 7550 1350 0    60   ~ 0
ROW4
Text Label 7550 1450 0    60   ~ 0
ROW5
Text Label 7550 1550 0    60   ~ 0
ROW6
Text Label 7550 1650 0    60   ~ 0
ROW7
Text Label 7550 1750 0    60   ~ 0
ROW8
Text Label 7550 1850 0    60   ~ 0
ROW9
Text Label 7550 1950 0    60   ~ 0
ROW10
Text Label 7550 2050 0    60   ~ 0
ROW11
Text Label 7550 2150 0    60   ~ 0
ROW12
Text Label 7550 2250 0    60   ~ 0
ROW13
Text Label 7550 2750 0    60   ~ 0
COM5
Entry Wire Line
	7450 950  7550 1050
Entry Wire Line
	7450 1050 7550 1150
Entry Wire Line
	7450 1150 7550 1250
Entry Wire Line
	7450 1250 7550 1350
Entry Wire Line
	7450 1350 7550 1450
Entry Wire Line
	7450 1450 7550 1550
Entry Wire Line
	7450 1550 7550 1650
Entry Wire Line
	7450 1650 7550 1750
Entry Wire Line
	7450 1750 7550 1850
Entry Wire Line
	7450 1850 7550 1950
Entry Wire Line
	7450 1950 7550 2050
Entry Wire Line
	7450 2050 7550 2150
Entry Wire Line
	7450 2150 7550 2250
Text Label 7550 3000 0    60   ~ 0
ROW0
Text Label 7550 3100 0    60   ~ 0
ROW1
Text Label 7550 3200 0    60   ~ 0
ROW2
Text Label 7550 3300 0    60   ~ 0
ROW3
Text Label 7550 3400 0    60   ~ 0
ROW4
Text Label 7550 3500 0    60   ~ 0
ROW5
Text Label 7550 3600 0    60   ~ 0
ROW6
Text Label 7550 3700 0    60   ~ 0
ROW7
Text Label 7550 3800 0    60   ~ 0
ROW8
Text Label 7550 3900 0    60   ~ 0
ROW9
Text Label 7550 4000 0    60   ~ 0
ROW10
Text Label 7550 4100 0    60   ~ 0
ROW11
Text Label 7550 4200 0    60   ~ 0
ROW12
Text Label 7550 4300 0    60   ~ 0
ROW13
Entry Wire Line
	7450 2900 7550 3000
Entry Wire Line
	7450 2900 7550 3000
Entry Wire Line
	7450 3000 7550 3100
Entry Wire Line
	7450 3100 7550 3200
Entry Wire Line
	7450 3200 7550 3300
Entry Wire Line
	7450 3300 7550 3400
Entry Wire Line
	7450 3400 7550 3500
Entry Wire Line
	7450 3500 7550 3600
Entry Wire Line
	7450 3600 7550 3700
Entry Wire Line
	7450 3700 7550 3800
Entry Wire Line
	7450 3800 7550 3900
Entry Wire Line
	7450 3900 7550 4000
Entry Wire Line
	7450 4000 7550 4100
Entry Wire Line
	7450 4100 7550 4200
Entry Wire Line
	7450 4200 7550 4300
$Comp
L bttf-display-rescue:LED D1
U 1 1 59C7E078
P 6250 5150
F 0 "D1" H 6250 5250 50  0000 C CNN
F 1 "LED" H 6250 5050 50  0000 C CNN
F 2 "LEDs:LED_D5.0mm" H 6250 5150 50  0001 C CNN
F 3 "" H 6250 5150 50  0001 C CNN
	1    6250 5150
	1    0    0    -1  
$EndComp
$Comp
L bttf-display-rescue:LED D2
U 1 1 59C7EDE5
P 6250 5450
F 0 "D2" H 6250 5550 50  0000 C CNN
F 1 "LED" H 6250 5350 50  0000 C CNN
F 2 "LEDs:LED_D5.0mm" H 6250 5450 50  0001 C CNN
F 3 "" H 6250 5450 50  0001 C CNN
	1    6250 5450
	1    0    0    -1  
$EndComp
Text Label 5700 5150 0    60   ~ 0
COM3
Text Label 5700 5450 0    60   ~ 0
COM3
Text Label 6800 5150 2    60   ~ 0
ROW7
Text Label 6800 5450 2    60   ~ 0
ROW15
Text Notes 6100 5750 0    60   ~ 0
AM/PM
$Comp
L bttf-display-rescue:LED D3
U 1 1 59C7FC8B
P 6250 6000
F 0 "D3" H 6250 6100 50  0000 C CNN
F 1 "LED" H 6250 5900 50  0000 C CNN
F 2 "LEDs:LED_D5.0mm" H 6250 6000 50  0001 C CNN
F 3 "" H 6250 6000 50  0001 C CNN
	1    6250 6000
	1    0    0    -1  
$EndComp
$Comp
L bttf-display-rescue:LED D4
U 1 1 59C7FD4E
P 6250 6300
F 0 "D4" H 6250 6400 50  0000 C CNN
F 1 "LED" H 6250 6200 50  0000 C CNN
F 2 "LEDs:LED_D5.0mm" H 6250 6300 50  0001 C CNN
F 3 "" H 6250 6300 50  0001 C CNN
	1    6250 6300
	1    0    0    -1  
$EndComp
Text Label 5700 6000 0    60   ~ 0
COM4
Text Label 5700 6300 0    60   ~ 0
COM4
Text Label 6800 6000 2    60   ~ 0
ROW7
Text Label 6800 6300 2    60   ~ 0
ROW15
Text Notes 5800 6600 0    60   ~ 0
min/sec separator
Text Notes 4950 4750 0    60   ~ 0
Year
Text Notes 4950 6850 0    60   ~ 0
Day
Text Notes 6700 2750 0    60   ~ 0
Hours
Text Notes 6700 4800 0    60   ~ 0
Minutes
$Comp
L power:PWR_FLAG #FLG05
U 1 1 59C883FE
P 1900 5650
F 0 "#FLG05" H 1900 5725 50  0001 C CNN
F 1 "PWR_FLAG" H 1900 5800 50  0000 C CNN
F 2 "" H 1900 5650 50  0001 C CNN
F 3 "" H 1900 5650 50  0001 C CNN
	1    1900 5650
	1    0    0    -1  
$EndComp
$Comp
L power:PWR_FLAG #FLG06
U 1 1 59C88449
P 1900 5850
F 0 "#FLG06" H 1900 5925 50  0001 C CNN
F 1 "PWR_FLAG" H 1900 6000 50  0000 C CNN
F 2 "" H 1900 5850 50  0001 C CNN
F 3 "" H 1900 5850 50  0001 C CNN
	1    1900 5850
	-1   0    0    1   
$EndComp
Wire Wire Line
	1550 5500 1550 5700
Wire Wire Line
	1350 5500 1350 5800
Wire Wire Line
	1150 1450 1050 1450
Wire Wire Line
	1050 1450 1050 1350
Wire Wire Line
	1050 4050 1050 3950
Wire Wire Line
	1050 3950 1150 3950
Wire Wire Line
	3100 1450 3500 1450
Wire Wire Line
	3100 1550 3500 1550
Wire Wire Line
	3100 1650 3500 1650
Wire Wire Line
	3100 1750 3500 1750
Wire Wire Line
	3100 1850 3500 1850
Wire Wire Line
	3100 1950 3500 1950
Wire Wire Line
	3100 2050 3500 2050
Wire Wire Line
	3100 2150 3500 2150
Wire Wire Line
	3100 2250 3500 2250
Wire Wire Line
	3100 2350 3500 2350
Wire Wire Line
	3100 2450 3500 2450
Wire Wire Line
	3100 2550 3500 2550
Wire Wire Line
	3100 2650 3500 2650
Wire Wire Line
	3100 2750 3500 2750
Wire Wire Line
	3100 2850 3500 2850
Wire Wire Line
	3100 2950 3500 2950
Wire Wire Line
	3100 3250 3450 3250
Wire Wire Line
	3100 3350 3450 3350
Wire Wire Line
	3100 3450 3450 3450
Wire Wire Line
	3900 1050 4250 1050
Wire Wire Line
	3900 1150 4250 1150
Wire Wire Line
	3900 1250 4250 1250
Wire Wire Line
	3900 1350 4250 1350
Wire Wire Line
	3900 1450 4250 1450
Wire Wire Line
	3900 1550 4250 1550
Wire Wire Line
	3900 1650 4250 1650
Wire Wire Line
	3900 2050 4250 2050
Wire Wire Line
	3900 2150 4250 2150
Wire Wire Line
	3900 2250 4250 2250
Wire Wire Line
	3900 2350 4250 2350
Wire Wire Line
	3900 2450 4250 2450
Wire Wire Line
	3900 2550 4250 2550
Wire Wire Line
	3900 2650 4250 2650
Wire Wire Line
	3900 3050 4250 3050
Wire Wire Line
	3900 3150 4250 3150
Wire Wire Line
	3900 3250 4250 3250
Wire Wire Line
	3900 3350 4250 3350
Wire Wire Line
	3900 3450 4250 3450
Wire Wire Line
	3900 3550 4250 3550
Wire Wire Line
	3900 3650 4250 3650
Wire Wire Line
	3900 4050 4250 4050
Wire Wire Line
	3900 4150 4250 4150
Wire Wire Line
	3900 4250 4250 4250
Wire Wire Line
	3900 4350 4250 4350
Wire Wire Line
	3900 4450 4250 4450
Wire Wire Line
	3900 4550 4250 4550
Wire Wire Line
	3900 4650 4250 4650
Wire Wire Line
	3900 950  4250 950 
Wire Wire Line
	3900 1950 4250 1950
Wire Wire Line
	3900 2950 4250 2950
Wire Wire Line
	3900 3950 4250 3950
Wire Wire Line
	3100 3550 3450 3550
Wire Wire Line
	3100 3650 3450 3650
Wire Wire Line
	3100 3750 3450 3750
Wire Wire Line
	3100 3850 3450 3850
Wire Wire Line
	3100 3950 3450 3950
Wire Wire Line
	3900 5150 4250 5150
Wire Wire Line
	3900 5250 4250 5250
Wire Wire Line
	3900 5350 4250 5350
Wire Wire Line
	3900 5450 4250 5450
Wire Wire Line
	3900 5550 4250 5550
Wire Wire Line
	3900 5650 4250 5650
Wire Wire Line
	3900 5750 4250 5750
Wire Wire Line
	3900 6050 4250 6050
Wire Wire Line
	3900 6150 4250 6150
Wire Wire Line
	3900 6250 4250 6250
Wire Wire Line
	3900 6350 4250 6350
Wire Wire Line
	3900 6450 4250 6450
Wire Wire Line
	3900 6550 4250 6550
Wire Wire Line
	3900 6650 4250 6650
Wire Wire Line
	3900 6750 4250 6750
Wire Wire Line
	3900 5050 4250 5050
Wire Wire Line
	5700 950  6100 950 
Wire Wire Line
	5700 1050 6100 1050
Wire Wire Line
	5700 1150 6100 1150
Wire Wire Line
	5700 1250 6100 1250
Wire Wire Line
	5700 1350 6100 1350
Wire Wire Line
	5700 1450 6100 1450
Wire Wire Line
	5700 1550 6100 1550
Wire Wire Line
	5700 1650 6100 1650
Wire Wire Line
	5700 1950 6100 1950
Wire Wire Line
	5700 2050 6100 2050
Wire Wire Line
	5700 2150 6100 2150
Wire Wire Line
	5700 2250 6100 2250
Wire Wire Line
	5700 2350 6100 2350
Wire Wire Line
	5700 2450 6100 2450
Wire Wire Line
	5700 2550 6100 2550
Wire Wire Line
	5700 2650 6100 2650
Wire Wire Line
	5700 3000 6100 3000
Wire Wire Line
	5700 3100 6100 3100
Wire Wire Line
	5700 3200 6100 3200
Wire Wire Line
	5700 3300 6100 3300
Wire Wire Line
	5700 3400 6100 3400
Wire Wire Line
	5700 3500 6100 3500
Wire Wire Line
	5700 3600 6100 3600
Wire Wire Line
	5700 3700 6100 3700
Wire Wire Line
	5700 4000 6100 4000
Wire Wire Line
	5700 4100 6100 4100
Wire Wire Line
	5700 4200 6100 4200
Wire Wire Line
	5700 4300 6100 4300
Wire Wire Line
	5700 4400 6100 4400
Wire Wire Line
	5700 4500 6100 4500
Wire Wire Line
	5700 4600 6100 4600
Wire Wire Line
	5700 4700 6100 4700
Wire Bus Line
	3600 850  7450 850 
Wire Wire Line
	7550 950  7950 950 
Wire Wire Line
	7550 1050 7950 1050
Wire Wire Line
	7550 1150 7950 1150
Wire Wire Line
	7550 1250 7950 1250
Wire Wire Line
	7550 1350 7950 1350
Wire Wire Line
	7550 1450 7950 1450
Wire Wire Line
	7550 1550 7950 1550
Wire Wire Line
	7550 1650 7950 1650
Wire Wire Line
	7550 1750 7950 1750
Wire Wire Line
	7550 1850 7950 1850
Wire Wire Line
	7550 1950 7950 1950
Wire Wire Line
	7550 2050 7950 2050
Wire Wire Line
	7550 2150 7950 2150
Wire Wire Line
	7550 2250 7950 2250
Wire Wire Line
	7550 2750 7950 2750
Wire Wire Line
	7550 3100 7950 3100
Wire Wire Line
	7550 3200 7950 3200
Wire Wire Line
	7550 3300 7950 3300
Wire Wire Line
	7550 3400 7950 3400
Wire Wire Line
	7550 3500 7950 3500
Wire Wire Line
	7550 3600 7950 3600
Wire Wire Line
	7550 3700 7950 3700
Wire Wire Line
	7550 3800 7950 3800
Wire Wire Line
	7550 3900 7950 3900
Wire Wire Line
	7550 4000 7950 4000
Wire Wire Line
	7550 4100 7950 4100
Wire Wire Line
	7550 4200 7950 4200
Wire Wire Line
	7550 4300 7950 4300
Wire Wire Line
	7550 3000 7950 3000
Wire Wire Line
	5700 5150 6100 5150
Wire Wire Line
	6100 5450 5700 5450
Wire Wire Line
	6400 5450 6800 5450
Wire Wire Line
	6400 5150 6800 5150
Wire Wire Line
	5700 6300 6100 6300
Wire Wire Line
	6100 6000 5700 6000
Wire Wire Line
	6400 6000 6800 6000
Wire Wire Line
	6400 6300 6800 6300
Wire Wire Line
	1550 5700 1900 5700
Wire Wire Line
	1900 5800 1900 5850
Connection ~ 1900 5800
Wire Wire Line
	1900 5650 1900 5700
Connection ~ 1900 5700
Wire Wire Line
	1350 5800 1900 5800
Wire Wire Line
	7550 2350 7950 2350
Wire Wire Line
	7550 2450 7950 2450
Entry Wire Line
	7450 2250 7550 2350
Entry Wire Line
	7450 2350 7550 2450
Text Label 7550 2350 0    60   ~ 0
ROW14
Text Label 7550 2450 0    60   ~ 0
ROW15
NoConn ~ 7950 2550
Wire Wire Line
	7950 4400 7550 4400
Wire Wire Line
	7950 4500 7550 4500
Text Label 7550 4400 0    60   ~ 0
ROW14
Text Label 7550 4500 0    60   ~ 0
ROW15
Entry Wire Line
	7450 4300 7550 4400
Entry Wire Line
	7450 4400 7550 4500
NoConn ~ 7950 4600
Wire Wire Line
	7950 4800 7550 4800
Text Label 7550 4800 0    60   ~ 0
COM6
Wire Wire Line
	9750 950  9350 950 
Wire Wire Line
	9750 1050 9350 1050
Wire Wire Line
	9750 1150 9350 1150
Wire Wire Line
	9750 1250 9350 1250
Wire Wire Line
	9750 1350 9350 1350
Wire Wire Line
	9750 1450 9350 1450
Wire Wire Line
	9750 1550 9350 1550
Wire Wire Line
	9750 1650 9350 1650
Wire Wire Line
	9750 1750 9350 1750
Wire Wire Line
	9750 1850 9350 1850
Wire Wire Line
	9750 1950 9350 1950
Wire Wire Line
	9750 2050 9350 2050
Wire Wire Line
	9750 2150 9350 2150
Wire Wire Line
	9750 2250 9350 2250
Wire Wire Line
	9750 2350 9350 2350
Wire Wire Line
	9750 2450 9350 2450
Text Label 9350 950  0    60   ~ 0
ROW0
Text Label 9350 1050 0    60   ~ 0
ROW1
Text Label 9350 1150 0    60   ~ 0
ROW2
Text Label 9350 1250 0    60   ~ 0
ROW3
Text Label 9350 1350 0    60   ~ 0
ROW4
Text Label 9350 1450 0    60   ~ 0
ROW5
Text Label 9350 1550 0    60   ~ 0
ROW6
Text Label 9350 1650 0    60   ~ 0
ROW7
Text Label 9350 1750 0    60   ~ 0
ROW8
Text Label 9350 1850 0    60   ~ 0
ROW9
Text Label 9350 1950 0    60   ~ 0
ROW10
Text Label 9350 2050 0    60   ~ 0
ROW11
Text Label 9350 2150 0    60   ~ 0
ROW12
Text Label 9350 2250 0    60   ~ 0
ROW13
Text Label 9350 2350 0    60   ~ 0
ROW14
Text Label 9350 2450 0    60   ~ 0
ROW15
NoConn ~ 9750 2550
Entry Wire Line
	9250 850  9350 950 
Entry Wire Line
	9250 950  9350 1050
Entry Wire Line
	9250 1050 9350 1150
Entry Wire Line
	9250 1150 9350 1250
Entry Wire Line
	9250 1250 9350 1350
Entry Wire Line
	9250 1350 9350 1450
Entry Wire Line
	9250 1450 9350 1550
Entry Wire Line
	9250 1550 9350 1650
Entry Wire Line
	9250 1650 9350 1750
Entry Wire Line
	9250 1750 9350 1850
Entry Wire Line
	9250 1850 9350 1950
Entry Wire Line
	9250 1950 9350 2050
Entry Wire Line
	9250 2050 9350 2150
Entry Wire Line
	9250 2150 9350 2250
Entry Wire Line
	9250 2250 9350 2350
Entry Wire Line
	9250 2350 9350 2450
Wire Wire Line
	9750 2750 9350 2750
Text Label 9350 2750 0    60   ~ 0
COM7
Entry Wire Line
	7450 850  7550 950 
$Comp
L time-traveller:CC56-11XWA U3
U 1 1 5B1A1084
P 5100 2250
F 0 "U3" H 5400 -350 60  0000 C CNN
F 1 "CC56-11XWA" H 5000 1400 60  0000 C CNN
F 2 "bttf-display:CC56-11XWA" H 5100 3000 60  0001 C CNN
F 3 "" H 5100 3000 60  0001 C CNN
	1    5100 2250
	1    0    0    -1  
$EndComp
$Comp
L time-traveller:DC56-11XWA U2
U 1 1 5B1A1876
P 4950 5900
F 0 "U2" H 5450 4850 60  0000 C CNN
F 1 "DC56-11XWA" H 5050 5900 60  0000 C CNN
F 2 "bttf-display:DC56-11XWA" V 4750 6900 60  0001 C CNN
F 3 "" V 4750 6900 60  0001 C CNN
	1    4950 5900
	1    0    0    -1  
$EndComp
$Comp
L time-traveller:DC56-11XWA U4
U 1 1 5B1A1CB3
P 6800 1800
F 0 "U4" H 7300 750 60  0000 C CNN
F 1 "DC56-11XWA" H 6900 1800 60  0000 C CNN
F 2 "bttf-display:DC56-11XWA" V 6600 2800 60  0001 C CNN
F 3 "" V 6600 2800 60  0001 C CNN
	1    6800 1800
	1    0    0    -1  
$EndComp
$Comp
L time-traveller:DC56-11XWA U5
U 1 1 5B1A1D31
P 6800 3850
F 0 "U5" H 7300 2800 60  0000 C CNN
F 1 "DC56-11XWA" H 6900 3850 60  0000 C CNN
F 2 "bttf-display:DC56-11XWA" V 6600 4850 60  0001 C CNN
F 3 "" V 6600 4850 60  0001 C CNN
	1    6800 3850
	1    0    0    -1  
$EndComp
$Comp
L time-traveller:PSC05-11CXKWA U6
U 1 1 5B1A2DB5
P 8650 1450
F 0 "U6" H 8950 200 60  0000 C CNN
F 1 "PSC05-11CXKWA" H 8650 950 60  0000 C CNN
F 2 "bttf-display:PSC05-11CXKWA" H 8650 1450 60  0001 C CNN
F 3 "" H 8650 1450 60  0001 C CNN
	1    8650 1450
	1    0    0    -1  
$EndComp
$Comp
L time-traveller:PSC05-11CXKWA U7
U 1 1 5B1A2E35
P 8650 3500
F 0 "U7" H 8950 2250 60  0000 C CNN
F 1 "PSC05-11CXKWA" H 8650 3000 60  0000 C CNN
F 2 "bttf-display:PSC05-11CXKWA" H 8650 3500 60  0001 C CNN
F 3 "" H 8650 3500 60  0001 C CNN
	1    8650 3500
	1    0    0    -1  
$EndComp
$Comp
L time-traveller:PSC05-11CXKWA U8
U 1 1 5B1A343E
P 10450 1450
F 0 "U8" H 10750 200 60  0000 C CNN
F 1 "PSC05-11CXKWA" H 10450 950 60  0000 C CNN
F 2 "bttf-display:PSC05-11CXKWA" H 10450 1450 60  0001 C CNN
F 3 "" H 10450 1450 60  0001 C CNN
	1    10450 1450
	1    0    0    -1  
$EndComp
Text Label 900  1650 0    60   ~ 0
SDA
Text Label 900  1750 0    60   ~ 0
SCL
Text Label 2850 5900 0    60   ~ 0
SDA
Text Label 2850 6000 0    60   ~ 0
SCL
Wire Wire Line
	900  1650 1150 1650
Wire Wire Line
	900  1750 1150 1750
Wire Wire Line
	2400 5900 2850 5900
Wire Wire Line
	2500 6000 2850 6000
Text Notes 1850 6300 0    60   ~ 0
External connections
Text Notes 8450 2750 0    60   ~ 0
Month 0
Text Notes 8450 4800 0    60   ~ 0
Month 1
Text Notes 10250 2750 0    60   ~ 0
Month 2
Wire Wire Line
	1900 5800 2300 5800
Wire Wire Line
	1900 5700 2600 5700
Text Notes 1850 7400 0    60   ~ 0
Mounting holes
$Comp
L Mechanical:MountingHole H1
U 1 1 619BAC17
P 1900 6850
F 0 "H1" H 2000 6896 50  0000 L CNN
F 1 "MountingHole" H 2000 6805 50  0000 L CNN
F 2 "Mounting_Holes:MountingHole_2.5mm" H 1900 6850 50  0001 C CNN
F 3 "~" H 1900 6850 50  0001 C CNN
	1    1900 6850
	1    0    0    -1  
$EndComp
$Comp
L Mechanical:MountingHole H2
U 1 1 619BB2D5
P 1900 7100
F 0 "H2" H 2000 7146 50  0000 L CNN
F 1 "MountingHole" H 2000 7055 50  0000 L CNN
F 2 "Mounting_Holes:MountingHole_2.5mm" H 1900 7100 50  0001 C CNN
F 3 "~" H 1900 7100 50  0001 C CNN
	1    1900 7100
	1    0    0    -1  
$EndComp
$Comp
L Mechanical:MountingHole H3
U 1 1 619BB953
P 2650 6850
F 0 "H3" H 2750 6896 50  0000 L CNN
F 1 "MountingHole" H 2750 6805 50  0000 L CNN
F 2 "Mounting_Holes:MountingHole_2.5mm" H 2650 6850 50  0001 C CNN
F 3 "~" H 2650 6850 50  0001 C CNN
	1    2650 6850
	1    0    0    -1  
$EndComp
$Comp
L Mechanical:MountingHole H4
U 1 1 619BBB48
P 2650 7100
F 0 "H4" H 2750 7146 50  0000 L CNN
F 1 "MountingHole" H 2750 7055 50  0000 L CNN
F 2 "Mounting_Holes:MountingHole_2.5mm" H 2650 7100 50  0001 C CNN
F 3 "~" H 2650 7100 50  0001 C CNN
	1    2650 7100
	1    0    0    -1  
$EndComp
Wire Wire Line
	2300 5100 2300 5800
Wire Wire Line
	2400 5100 2400 5900
Wire Wire Line
	2500 5100 2500 6000
Wire Wire Line
	2600 5100 2600 5700
Wire Bus Line
	9250 850  9250 2350
Wire Bus Line
	3600 850  3600 3050
Wire Bus Line
	5600 850  5600 4600
Wire Bus Line
	7450 850  7450 4400
Wire Bus Line
	3800 850  3800 6650
Text Notes 1900 4200 0    60   ~ 0
Main driver
$EndSCHEMATC
