<?xml version="1.0"?>
<svg width="1550" height="200" xmlns="http://www.w3.org/2000/svg" xmlns:svg="http://www.w3.org/2000/svg">
 <!-- Created with SVG-edit - https://github.com/SVG-Edit/svgedit-->

 <g class="layer">
  <title>Layer 1</title>
  <text fill="#000000" font-family="Monospace" font-size="24" id="svg_1" stroke="#000000" stroke-linecap="square" stroke-linejoin="round" stroke-width="0" text-anchor="start" transform="matrix(7.67478, 0, 0, 7.67478, -1206.02, -1414.58)" x="183.879301" xml:space="preserve" y="206.731131">TimeTraveler</text>
  <g id="svg_14">
   <rect fill="#000000" height="186.120822" id="svg_11" stroke="#000000" stroke-linecap="square" stroke-linejoin="round" stroke-opacity="0" stroke-width="0" width="183.120831" x="5.804601" y="7.406088"/>
   <path d="m33.400016,37.617976c-0.41785,0 64.14053,54.27616 63.95251,54.1333c-0.18802,-0.14286 0.18802,-11.75981 0.20893,80.70008" fill="#000000" fill-opacity="0" id="svg_7" stroke="#ffffff" stroke-linejoin="round" stroke-width="10"/>
   <path d="m18.061572,36.603844c0,-8.287293 6.712707,-15 15,-15c8.287293,0 15,6.712707 15,15c0,8.287293 -6.712707,15 -15,15c-8.287293,0 -15,-6.712707 -15,-15z" fill="#ffffff" id="svg_8" stroke="#000000" stroke-opacity="0" stroke-width="0"/>
   <path d="m82.255629,169.916105c0,-8.287293 6.712707,-15 15,-15c8.287293,0 15,6.712707 15,15c0,8.287293 -6.712707,15 -15,15c-8.287293,0 -15,-6.712707 -15,-15z" fill="#ffffff" id="svg_10" stroke="#000000" stroke-opacity="0" stroke-width="0"/>
   <path d="m161.416443,36.907769l-50.414674,42.474134" fill="#ffffff" id="svg_6" stroke="#ffffff" stroke-linecap="round" stroke-width="10"/>
   <path d="m145.817532,36.603843c0,-8.287293 6.712707,-15 15,-15c8.287293,0 15,6.712707 15,15c0,8.287293 -6.712707,15 -15,15c-8.287293,0 -15,-6.712707 -15,-15z" fill="#ffffff" id="svg_9" stroke="#000000" stroke-opacity="0" stroke-width="0"/>
  </g>
 </g>
</svg>