EESchema Schematic File Version 4
EELAYER 30 0
EELAYER END
$Descr A4 11693 8268
encoding utf-8
Sheet 1 2
Title ""
Date ""
Rev ""
Comp ""
Comment1 ""
Comment2 ""
Comment3 ""
Comment4 ""
$EndDescr
$Comp
L time-traveller:DS1307 Q?
U 1 1 59203E41
P 6750 2050
F 0 "Q?" H 7150 1750 60  0000 C CNN
F 1 "DS1307" H 6700 2050 60  0000 C CNN
F 2 "" H 6650 2050 60  0001 C CNN
F 3 "" H 6650 2050 60  0001 C CNN
	1    6750 2050
	1    0    0    -1  
$EndComp
$Comp
L main-rescue:Crystal Y?
U 1 1 59203EE3
P 6500 1100
F 0 "Y?" H 6500 1250 50  0000 C CNN
F 1 "Crystal" H 6500 950 50  0000 C CNN
F 2 "" H 6500 1100 50  0000 C CNN
F 3 "" H 6500 1100 50  0000 C CNN
	1    6500 1100
	1    0    0    -1  
$EndComp
$Comp
L power:GND #PWR01
U 1 1 59204022
P 6750 2750
F 0 "#PWR01" H 6750 2500 50  0001 C CNN
F 1 "GND" H 6750 2600 50  0000 C CNN
F 2 "" H 6750 2750 50  0000 C CNN
F 3 "" H 6750 2750 50  0000 C CNN
	1    6750 2750
	1    0    0    -1  
$EndComp
$Comp
L main-rescue:ATMEGA328-P IC?
U 1 1 5920410C
P 2350 3100
F 0 "IC?" H 1600 4350 50  0000 L BNN
F 1 "ATMEGA328-P" H 2750 1700 50  0000 L BNN
F 2 "DIL28" H 2350 3100 50  0000 C CIN
F 3 "" H 2350 3100 50  0000 C CNN
	1    2350 3100
	1    0    0    -1  
$EndComp
$Comp
L main-rescue:R R?
U 1 1 5920493E
P 5300 1600
F 0 "R?" V 5380 1600 50  0000 C CNN
F 1 "R" V 5300 1600 50  0000 C CNN
F 2 "" V 5230 1600 50  0000 C CNN
F 3 "" H 5300 1600 50  0000 C CNN
	1    5300 1600
	1    0    0    -1  
$EndComp
$Comp
L main-rescue:R R?
U 1 1 59204A47
P 5050 1600
F 0 "R?" V 5130 1600 50  0000 C CNN
F 1 "R" V 5050 1600 50  0000 C CNN
F 2 "" V 4980 1600 50  0000 C CNN
F 3 "" H 5050 1600 50  0000 C CNN
	1    5050 1600
	1    0    0    -1  
$EndComp
Wire Wire Line
	6350 1100 6350 1450
Wire Wire Line
	6650 1450 6650 1100
Wire Wire Line
	4100 2000 5300 2000
Wire Wire Line
	5300 1750 5300 2000
Wire Wire Line
	3350 3350 4100 3350
Wire Wire Line
	4100 3350 4100 2000
Connection ~ 5300 2000
Wire Wire Line
	4000 3250 3350 3250
Wire Wire Line
	4000 2100 4000 3250
Wire Wire Line
	5950 2100 5650 2100
Wire Wire Line
	5050 1750 5050 2100
Connection ~ 5050 2100
Wire Wire Line
	6750 2750 6750 2650
$Comp
L power:GND #PWR02
U 1 1 59205339
P 1300 4600
F 0 "#PWR02" H 1300 4350 50  0001 C CNN
F 1 "GND" H 1300 4450 50  0000 C CNN
F 2 "" H 1300 4600 50  0000 C CNN
F 3 "" H 1300 4600 50  0000 C CNN
	1    1300 4600
	1    0    0    -1  
$EndComp
Wire Wire Line
	1450 4200 1300 4200
Wire Wire Line
	1300 4200 1300 4300
Wire Wire Line
	1450 4300 1300 4300
Connection ~ 1300 4300
$Comp
L power:+5V #PWR03
U 1 1 59205440
P 1300 1750
F 0 "#PWR03" H 1300 1600 50  0001 C CNN
F 1 "+5V" H 1300 1890 50  0000 C CNN
F 2 "" H 1300 1750 50  0000 C CNN
F 3 "" H 1300 1750 50  0000 C CNN
	1    1300 1750
	1    0    0    -1  
$EndComp
Wire Wire Line
	1450 2000 1300 2000
Wire Wire Line
	1300 1750 1300 2000
Wire Wire Line
	1300 2600 1450 2600
Connection ~ 1300 2000
$Comp
L power:+5V #PWR04
U 1 1 592057BD
P 5050 1300
F 0 "#PWR04" H 5050 1150 50  0001 C CNN
F 1 "+5V" H 5050 1440 50  0000 C CNN
F 2 "" H 5050 1300 50  0000 C CNN
F 3 "" H 5050 1300 50  0000 C CNN
	1    5050 1300
	1    0    0    -1  
$EndComp
$Comp
L power:+5V #PWR05
U 1 1 592057E0
P 5300 1300
F 0 "#PWR05" H 5300 1150 50  0001 C CNN
F 1 "+5V" H 5300 1440 50  0000 C CNN
F 2 "" H 5300 1300 50  0000 C CNN
F 3 "" H 5300 1300 50  0000 C CNN
	1    5300 1300
	1    0    0    -1  
$EndComp
Wire Wire Line
	5300 1300 5300 1450
Wire Wire Line
	5050 1300 5050 1450
$Comp
L power:+5V #PWR06
U 1 1 59205972
P 4200 2750
F 0 "#PWR06" H 4200 2600 50  0001 C CNN
F 1 "+5V" H 4200 2890 50  0000 C CNN
F 2 "" H 4200 2750 50  0000 C CNN
F 3 "" H 4200 2750 50  0000 C CNN
	1    4200 2750
	1    0    0    -1  
$EndComp
Wire Wire Line
	4200 3150 4200 3450
Wire Wire Line
	4200 3450 3350 3450
$Sheet
S 6050 3400 2150 1100
U 59203E02
F0 "Control Panel" 60
F1 "control-panel.sch" 60
F2 "SCL" I L 6050 3650 60 
F3 "SDA" I L 6050 3750 60 
F4 "InputINT" O R 8200 3650 60 
$EndSheet
Wire Wire Line
	6050 3650 5750 3650
Wire Wire Line
	5750 3650 5750 2000
Connection ~ 5750 2000
Wire Wire Line
	6050 3750 5650 3750
Wire Wire Line
	5650 3750 5650 2100
Connection ~ 5650 2100
$Comp
L power:+5V #PWR07
U 1 1 592059DC
P 7050 1100
F 0 "#PWR07" H 7050 950 50  0001 C CNN
F 1 "+5V" H 7050 1240 50  0000 C CNN
F 2 "" H 7050 1100 50  0000 C CNN
F 3 "" H 7050 1100 50  0000 C CNN
	1    7050 1100
	1    0    0    -1  
$EndComp
Wire Wire Line
	7050 1450 7050 1100
Text Label 8400 3650 0    60   ~ 0
Input_INT
Wire Wire Line
	8400 3650 8200 3650
Text Label 3550 3800 0    60   ~ 0
Inpunt_INT
Wire Wire Line
	3550 3800 3350 3800
Wire Wire Line
	5300 2000 5750 2000
Wire Wire Line
	5050 2100 4000 2100
Wire Wire Line
	1300 4300 1300 4600
Wire Wire Line
	1300 2000 1300 2600
Wire Wire Line
	5750 2000 5950 2000
Wire Wire Line
	5650 2100 5050 2100
Wire Wire Line
	4200 2850 4200 2750
$Comp
L main-rescue:R R?
U 1 1 61EC376F
P 4200 3000
F 0 "R?" H 4270 3046 50  0000 L CNN
F 1 "4k7" H 4270 2955 50  0000 L CNN
F 2 "" V 4130 3000 50  0000 C CNN
F 3 "" H 4200 3000 50  0000 C CNN
	1    4200 3000
	1    0    0    -1  
$EndComp
$Comp
L Switch:SW_SPST SW?
U 1 1 61EC8300
P 4400 3450
F 0 "SW?" H 4400 3685 50  0000 C CNN
F 1 "SW_SPST" H 4400 3594 50  0000 C CNN
F 2 "" H 4400 3450 50  0001 C CNN
F 3 "~" H 4400 3450 50  0001 C CNN
	1    4400 3450
	1    0    0    -1  
$EndComp
Connection ~ 4200 3450
$Comp
L power:GND #PWR?
U 1 1 61EC8C6E
P 4700 3550
F 0 "#PWR?" H 4700 3300 50  0001 C CNN
F 1 "GND" H 4700 3400 50  0000 C CNN
F 2 "" H 4700 3550 50  0000 C CNN
F 3 "" H 4700 3550 50  0000 C CNN
	1    4700 3550
	1    0    0    -1  
$EndComp
Wire Wire Line
	4600 3450 4700 3450
Wire Wire Line
	4700 3450 4700 3550
Wire Wire Line
	3350 3900 3550 3900
Text Label 3550 3900 0    50   ~ 0
SEC_INT
Wire Wire Line
	7550 1950 7750 1950
Text Label 7750 1950 0    50   ~ 0
SEC_INT
$EndSCHEMATC
