%TF.GenerationSoftware,KiCad,Pcbnew,5.1.9+dfsg1-1*%
%TF.CreationDate,2021-11-24T19:03:05+01:00*%
%TF.ProjectId,bttf-display,62747466-2d64-4697-9370-6c61792e6b69,rev?*%
%TF.SameCoordinates,Original*%
%TF.FileFunction,Copper,L1,Top*%
%TF.FilePolarity,Positive*%
%FSLAX46Y46*%
G04 Gerber Fmt 4.6, Leading zero omitted, Abs format (unit mm)*
G04 Created by KiCad (PCBNEW 5.1.9+dfsg1-1) date 2021-11-24 19:03:05*
%MOMM*%
%LPD*%
G01*
G04 APERTURE LIST*
%TA.AperFunction,ComponentPad*%
%ADD10C,1.524000*%
%TD*%
%TA.AperFunction,ComponentPad*%
%ADD11R,1.800000X1.800000*%
%TD*%
%TA.AperFunction,ComponentPad*%
%ADD12C,1.800000*%
%TD*%
%TA.AperFunction,ComponentPad*%
%ADD13R,1.524000X1.524000*%
%TD*%
%TA.AperFunction,ComponentPad*%
%ADD14R,1.200000X1.700000*%
%TD*%
%TA.AperFunction,ComponentPad*%
%ADD15O,1.200000X1.700000*%
%TD*%
%TA.AperFunction,ViaPad*%
%ADD16C,0.685800*%
%TD*%
%TA.AperFunction,Conductor*%
%ADD17C,0.152400*%
%TD*%
G04 APERTURE END LIST*
D10*
%TO.P,U7,2*%
%TO.N,/ROW9*%
X57150000Y-117602000D03*
%TO.P,U7,3*%
%TO.N,/ROW8*%
X57150000Y-120142000D03*
%TO.P,U7,4*%
%TO.N,/ROW7*%
X57150000Y-122682000D03*
%TO.P,U7,5*%
%TO.N,/ROW15*%
X57150000Y-125222000D03*
%TO.P,U7,6*%
%TO.N,/ROW12*%
X57150000Y-127762000D03*
%TO.P,U7,7*%
%TO.N,/ROW14*%
X57150000Y-130302000D03*
%TO.P,U7,8*%
%TO.N,/ROW6*%
X57150000Y-132842000D03*
%TO.P,U7,9*%
%TO.N,/ROW5*%
X57150000Y-135382000D03*
%TO.P,U7,1*%
%TO.N,/ROW0*%
X57150000Y-115062000D03*
%TO.P,U7,10*%
%TO.N,/ROW4*%
X69850000Y-135382000D03*
%TO.P,U7,11*%
%TO.N,/COM6*%
X69850000Y-132842000D03*
%TO.P,U7,12*%
%TO.N,Net-(U7-Pad12)*%
X69850000Y-130302000D03*
%TO.P,U7,13*%
%TO.N,/ROW3*%
X69850000Y-127762000D03*
%TO.P,U7,14*%
%TO.N,/ROW13*%
X69850000Y-125222000D03*
%TO.P,U7,15*%
%TO.N,/ROW11*%
X69850000Y-122682000D03*
%TO.P,U7,16*%
%TO.N,/ROW2*%
X69850000Y-120142000D03*
%TO.P,U7,17*%
%TO.N,/ROW10*%
X69850000Y-117602000D03*
%TO.P,U7,18*%
%TO.N,/ROW1*%
X69850000Y-115062000D03*
%TD*%
%TO.P,U8,2*%
%TO.N,/ROW9*%
X73406000Y-117602000D03*
%TO.P,U8,3*%
%TO.N,/ROW8*%
X73406000Y-120142000D03*
%TO.P,U8,4*%
%TO.N,/ROW7*%
X73406000Y-122682000D03*
%TO.P,U8,5*%
%TO.N,/ROW15*%
X73406000Y-125222000D03*
%TO.P,U8,6*%
%TO.N,/ROW12*%
X73406000Y-127762000D03*
%TO.P,U8,7*%
%TO.N,/ROW14*%
X73406000Y-130302000D03*
%TO.P,U8,8*%
%TO.N,/ROW6*%
X73406000Y-132842000D03*
%TO.P,U8,9*%
%TO.N,/ROW5*%
X73406000Y-135382000D03*
%TO.P,U8,1*%
%TO.N,/ROW0*%
X73406000Y-115062000D03*
%TO.P,U8,10*%
%TO.N,/ROW4*%
X86106000Y-135382000D03*
%TO.P,U8,11*%
%TO.N,/COM7*%
X86106000Y-132842000D03*
%TO.P,U8,12*%
%TO.N,Net-(U8-Pad12)*%
X86106000Y-130302000D03*
%TO.P,U8,13*%
%TO.N,/ROW3*%
X86106000Y-127762000D03*
%TO.P,U8,14*%
%TO.N,/ROW13*%
X86106000Y-125222000D03*
%TO.P,U8,15*%
%TO.N,/ROW11*%
X86106000Y-122682000D03*
%TO.P,U8,16*%
%TO.N,/ROW2*%
X86106000Y-120142000D03*
%TO.P,U8,17*%
%TO.N,/ROW10*%
X86106000Y-117602000D03*
%TO.P,U8,18*%
%TO.N,/ROW1*%
X86106000Y-115062000D03*
%TD*%
%TO.P,U5,1*%
%TO.N,/ROW4*%
X241046000Y-132842000D03*
%TO.P,U5,2*%
%TO.N,/ROW3*%
X243586000Y-132842000D03*
%TO.P,U5,3*%
%TO.N,/ROW2*%
X246126000Y-132842000D03*
%TO.P,U5,4*%
%TO.N,Net-(U5-Pad4)*%
X248666000Y-132842000D03*
%TO.P,U5,5*%
%TO.N,/ROW12*%
X251206000Y-132842000D03*
%TO.P,U5,6*%
%TO.N,/ROW11*%
X253746000Y-132842000D03*
%TO.P,U5,7*%
%TO.N,/ROW14*%
X256286000Y-132842000D03*
%TO.P,U5,8*%
%TO.N,/ROW10*%
X258826000Y-132842000D03*
%TO.P,U5,9*%
%TO.N,Net-(U5-Pad9)*%
X261366000Y-132842000D03*
%TO.P,U5,10*%
%TO.N,/ROW9*%
X261366000Y-117602000D03*
%TO.P,U5,11*%
%TO.N,/ROW8*%
X258826000Y-117602000D03*
%TO.P,U5,12*%
%TO.N,/ROW13*%
X256286000Y-117602000D03*
%TO.P,U5,13*%
%TO.N,/COM4*%
X253746000Y-117602000D03*
%TO.P,U5,14*%
X251206000Y-117602000D03*
%TO.P,U5,15*%
%TO.N,/ROW1*%
X248666000Y-117602000D03*
%TO.P,U5,16*%
%TO.N,/ROW0*%
X246126000Y-117602000D03*
%TO.P,U5,17*%
%TO.N,/ROW6*%
X243586000Y-117602000D03*
%TO.P,U5,18*%
%TO.N,/ROW5*%
X241046000Y-117602000D03*
%TD*%
%TO.P,U4,1*%
%TO.N,/ROW4*%
X205994000Y-132842000D03*
%TO.P,U4,2*%
%TO.N,/ROW3*%
X208534000Y-132842000D03*
%TO.P,U4,3*%
%TO.N,/ROW2*%
X211074000Y-132842000D03*
%TO.P,U4,4*%
%TO.N,Net-(U4-Pad4)*%
X213614000Y-132842000D03*
%TO.P,U4,5*%
%TO.N,/ROW12*%
X216154000Y-132842000D03*
%TO.P,U4,6*%
%TO.N,/ROW11*%
X218694000Y-132842000D03*
%TO.P,U4,7*%
%TO.N,/ROW14*%
X221234000Y-132842000D03*
%TO.P,U4,8*%
%TO.N,/ROW10*%
X223774000Y-132842000D03*
%TO.P,U4,9*%
%TO.N,Net-(U4-Pad9)*%
X226314000Y-132842000D03*
%TO.P,U4,10*%
%TO.N,/ROW9*%
X226314000Y-117602000D03*
%TO.P,U4,11*%
%TO.N,/ROW8*%
X223774000Y-117602000D03*
%TO.P,U4,12*%
%TO.N,/ROW13*%
X221234000Y-117602000D03*
%TO.P,U4,13*%
%TO.N,/COM3*%
X218694000Y-117602000D03*
%TO.P,U4,14*%
X216154000Y-117602000D03*
%TO.P,U4,15*%
%TO.N,/ROW1*%
X213614000Y-117602000D03*
%TO.P,U4,16*%
%TO.N,/ROW0*%
X211074000Y-117602000D03*
%TO.P,U4,17*%
%TO.N,/ROW6*%
X208534000Y-117602000D03*
%TO.P,U4,18*%
%TO.N,/ROW5*%
X205994000Y-117602000D03*
%TD*%
%TO.P,U3,1*%
%TO.N,/ROW4*%
X141478000Y-132842000D03*
%TO.P,U3,2*%
%TO.N,/ROW3*%
X144018000Y-132842000D03*
%TO.P,U3,3*%
%TO.N,/ROW2*%
X146558000Y-132842000D03*
%TO.P,U3,4*%
%TO.N,Net-(U3-Pad4)*%
X149098000Y-132842000D03*
%TO.P,U3,5*%
%TO.N,/ROW12*%
X151638000Y-132842000D03*
%TO.P,U3,6*%
%TO.N,/ROW11*%
X154178000Y-132842000D03*
%TO.P,U3,7*%
%TO.N,/ROW14*%
X156718000Y-132842000D03*
%TO.P,U3,8*%
%TO.N,/ROW10*%
X159258000Y-132842000D03*
%TO.P,U3,9*%
%TO.N,Net-(U3-Pad9)*%
X161798000Y-132842000D03*
%TO.P,U3,10*%
%TO.N,/ROW4*%
X164338000Y-132842000D03*
%TO.P,U3,11*%
%TO.N,/ROW3*%
X166878000Y-132842000D03*
%TO.P,U3,12*%
%TO.N,/ROW2*%
X169418000Y-132842000D03*
%TO.P,U3,13*%
%TO.N,Net-(U3-Pad13)*%
X171958000Y-132842000D03*
%TO.P,U3,14*%
%TO.N,/ROW12*%
X174498000Y-132842000D03*
%TO.P,U3,15*%
%TO.N,/ROW11*%
X177038000Y-132842000D03*
%TO.P,U3,16*%
%TO.N,/ROW14*%
X179578000Y-132842000D03*
%TO.P,U3,17*%
%TO.N,/ROW10*%
X182118000Y-132842000D03*
%TO.P,U3,18*%
%TO.N,Net-(U3-Pad18)*%
X184658000Y-132842000D03*
%TO.P,U3,19*%
%TO.N,/ROW9*%
X184658000Y-117602000D03*
%TO.P,U3,20*%
%TO.N,/ROW8*%
X182118000Y-117602000D03*
%TO.P,U3,21*%
%TO.N,/ROW13*%
X179578000Y-117602000D03*
%TO.P,U3,22*%
%TO.N,/COM1*%
X177038000Y-117602000D03*
%TO.P,U3,23*%
X174498000Y-117602000D03*
%TO.P,U3,24*%
%TO.N,/ROW1*%
X171958000Y-117602000D03*
%TO.P,U3,25*%
%TO.N,/ROW0*%
X169418000Y-117602000D03*
%TO.P,U3,26*%
%TO.N,/ROW6*%
X166878000Y-117602000D03*
%TO.P,U3,27*%
%TO.N,/ROW5*%
X164338000Y-117602000D03*
%TO.P,U3,28*%
%TO.N,/ROW9*%
X161798000Y-117602000D03*
%TO.P,U3,29*%
%TO.N,/ROW8*%
X159258000Y-117602000D03*
%TO.P,U3,30*%
%TO.N,/ROW13*%
X156718000Y-117602000D03*
%TO.P,U3,31*%
%TO.N,/COM0*%
X154178000Y-117602000D03*
%TO.P,U3,32*%
X151638000Y-117602000D03*
%TO.P,U3,33*%
%TO.N,/ROW1*%
X149098000Y-117602000D03*
%TO.P,U3,34*%
%TO.N,/ROW0*%
X146558000Y-117602000D03*
%TO.P,U3,35*%
%TO.N,/ROW6*%
X144018000Y-117602000D03*
%TO.P,U3,36*%
%TO.N,/ROW5*%
X141478000Y-117602000D03*
%TD*%
D11*
%TO.P,D1,1*%
%TO.N,/COM3*%
X197358000Y-121158000D03*
D12*
%TO.P,D1,2*%
%TO.N,/ROW7*%
X194818000Y-121158000D03*
%TD*%
D11*
%TO.P,D2,1*%
%TO.N,/COM3*%
X197358000Y-129794000D03*
D12*
%TO.P,D2,2*%
%TO.N,/ROW15*%
X194818000Y-129794000D03*
%TD*%
D11*
%TO.P,D3,1*%
%TO.N,/COM4*%
X234950000Y-120396000D03*
D12*
%TO.P,D3,2*%
%TO.N,/ROW7*%
X232410000Y-120396000D03*
%TD*%
D11*
%TO.P,D4,1*%
%TO.N,/COM4*%
X234950000Y-130302000D03*
D12*
%TO.P,D4,2*%
%TO.N,/ROW15*%
X232410000Y-130302000D03*
%TD*%
D10*
%TO.P,U6,2*%
%TO.N,/ROW9*%
X40894000Y-117602000D03*
%TO.P,U6,3*%
%TO.N,/ROW8*%
X40894000Y-120142000D03*
%TO.P,U6,4*%
%TO.N,/ROW7*%
X40894000Y-122682000D03*
%TO.P,U6,5*%
%TO.N,/ROW15*%
X40894000Y-125222000D03*
%TO.P,U6,6*%
%TO.N,/ROW12*%
X40894000Y-127762000D03*
%TO.P,U6,7*%
%TO.N,/ROW14*%
X40894000Y-130302000D03*
%TO.P,U6,8*%
%TO.N,/ROW6*%
X40894000Y-132842000D03*
%TO.P,U6,9*%
%TO.N,/ROW5*%
X40894000Y-135382000D03*
%TO.P,U6,1*%
%TO.N,/ROW0*%
X40894000Y-115062000D03*
%TO.P,U6,10*%
%TO.N,/ROW4*%
X53594000Y-135382000D03*
%TO.P,U6,11*%
%TO.N,/COM5*%
X53594000Y-132842000D03*
%TO.P,U6,12*%
%TO.N,Net-(U6-Pad12)*%
X53594000Y-130302000D03*
%TO.P,U6,13*%
%TO.N,/ROW3*%
X53594000Y-127762000D03*
%TO.P,U6,14*%
%TO.N,/ROW13*%
X53594000Y-125222000D03*
%TO.P,U6,15*%
%TO.N,/ROW11*%
X53594000Y-122682000D03*
%TO.P,U6,16*%
%TO.N,/ROW2*%
X53594000Y-120142000D03*
%TO.P,U6,17*%
%TO.N,/ROW10*%
X53594000Y-117602000D03*
%TO.P,U6,18*%
%TO.N,/ROW1*%
X53594000Y-115062000D03*
%TD*%
%TO.P,U2,1*%
%TO.N,/ROW4*%
X100330000Y-132842000D03*
%TO.P,U2,2*%
%TO.N,/ROW3*%
X102870000Y-132842000D03*
%TO.P,U2,3*%
%TO.N,/ROW2*%
X105410000Y-132842000D03*
%TO.P,U2,4*%
%TO.N,Net-(U2-Pad4)*%
X107950000Y-132842000D03*
%TO.P,U2,5*%
%TO.N,/ROW12*%
X110490000Y-132842000D03*
%TO.P,U2,6*%
%TO.N,/ROW11*%
X113030000Y-132842000D03*
%TO.P,U2,7*%
%TO.N,/ROW14*%
X115570000Y-132842000D03*
%TO.P,U2,8*%
%TO.N,/ROW10*%
X118110000Y-132842000D03*
%TO.P,U2,9*%
%TO.N,Net-(U2-Pad9)*%
X120650000Y-132842000D03*
%TO.P,U2,10*%
%TO.N,/ROW9*%
X120650000Y-117602000D03*
%TO.P,U2,11*%
%TO.N,/ROW8*%
X118110000Y-117602000D03*
%TO.P,U2,12*%
%TO.N,/ROW13*%
X115570000Y-117602000D03*
%TO.P,U2,13*%
%TO.N,/COM2*%
X113030000Y-117602000D03*
%TO.P,U2,14*%
X110490000Y-117602000D03*
%TO.P,U2,15*%
%TO.N,/ROW1*%
X107950000Y-117602000D03*
%TO.P,U2,16*%
%TO.N,/ROW0*%
X105410000Y-117602000D03*
%TO.P,U2,17*%
%TO.N,/ROW6*%
X102870000Y-117602000D03*
%TO.P,U2,18*%
%TO.N,/ROW5*%
X100330000Y-117602000D03*
%TD*%
D13*
%TO.P,U1,1*%
%TO.N,GND*%
X145288000Y-121920000D03*
D10*
%TO.P,U1,2*%
%TO.N,/COM0*%
X147828000Y-121920000D03*
%TO.P,U1,3*%
%TO.N,/COM1*%
X150368000Y-121920000D03*
%TO.P,U1,4*%
%TO.N,/COM2*%
X152908000Y-121920000D03*
%TO.P,U1,5*%
%TO.N,/COM3*%
X155448000Y-121920000D03*
%TO.P,U1,6*%
%TO.N,/COM4*%
X157988000Y-121920000D03*
%TO.P,U1,7*%
%TO.N,/COM5*%
X160528000Y-121920000D03*
%TO.P,U1,8*%
%TO.N,/COM6*%
X163068000Y-121920000D03*
%TO.P,U1,9*%
%TO.N,/COM7*%
X165608000Y-121920000D03*
%TO.P,U1,10*%
%TO.N,/ROW15*%
X168148000Y-121920000D03*
%TO.P,U1,11*%
%TO.N,/ROW14*%
X170688000Y-121920000D03*
%TO.P,U1,12*%
%TO.N,/ROW13*%
X173228000Y-121920000D03*
%TO.P,U1,13*%
%TO.N,/ROW12*%
X175768000Y-121920000D03*
%TO.P,U1,14*%
%TO.N,/ROW11*%
X178308000Y-121920000D03*
%TO.P,U1,15*%
%TO.N,/ROW10*%
X178308000Y-139700000D03*
%TO.P,U1,16*%
%TO.N,/ROW9*%
X175768000Y-139700000D03*
%TO.P,U1,17*%
%TO.N,/ROW8*%
X173228000Y-139700000D03*
%TO.P,U1,18*%
%TO.N,/ROW7*%
X170688000Y-139700000D03*
%TO.P,U1,19*%
%TO.N,/ROW6*%
X168148000Y-139700000D03*
%TO.P,U1,20*%
%TO.N,/ROW5*%
X165608000Y-139700000D03*
%TO.P,U1,21*%
%TO.N,/ROW4*%
X163068000Y-139700000D03*
%TO.P,U1,22*%
%TO.N,/ROW3*%
X160528000Y-139700000D03*
%TO.P,U1,23*%
%TO.N,/ROW2*%
X157988000Y-139700000D03*
%TO.P,U1,24*%
%TO.N,/ROW1*%
X155448000Y-139700000D03*
%TO.P,U1,25*%
%TO.N,/ROW0*%
X152908000Y-139700000D03*
%TO.P,U1,26*%
%TO.N,/SCL*%
X150368000Y-139700000D03*
%TO.P,U1,27*%
%TO.N,/SDA*%
X147828000Y-139700000D03*
%TO.P,U1,28*%
%TO.N,+5V*%
X145288000Y-139700000D03*
%TD*%
D14*
%TO.P,J1,1*%
%TO.N,GND*%
X133096000Y-112014000D03*
D15*
%TO.P,J1,2*%
%TO.N,/SDA*%
X131096000Y-112014000D03*
%TO.P,J1,3*%
%TO.N,/SCL*%
X129096000Y-112014000D03*
%TO.P,J1,4*%
%TO.N,+5V*%
X127096000Y-112014000D03*
%TD*%
D16*
%TO.N,/ROW0*%
X104648000Y-138430000D03*
X142240000Y-138430000D03*
%TO.N,/ROW1*%
X107188000Y-137668000D03*
X147320000Y-137668000D03*
X211836000Y-137668000D03*
X170180000Y-137668000D03*
%TO.N,/ROW2*%
X105918000Y-136906000D03*
X146050000Y-136906000D03*
X168910000Y-136906000D03*
X210566000Y-136906000D03*
X104902000Y-120142000D03*
%TO.N,/ROW4*%
X99822000Y-135382000D03*
X140970000Y-135382000D03*
X205486000Y-135382000D03*
X164846000Y-135382000D03*
%TO.N,/ROW3*%
X208026000Y-136144000D03*
X102362000Y-136144000D03*
X166370000Y-136144000D03*
X143510000Y-136144000D03*
X160020000Y-136144000D03*
X93980002Y-128778000D03*
X94488000Y-136144000D03*
%TO.N,/ROW12*%
X215646000Y-126746000D03*
X250698000Y-126746000D03*
X151130000Y-126746000D03*
X109982000Y-126746000D03*
X175260000Y-126746000D03*
%TO.N,/ROW11*%
X112522000Y-127508000D03*
X153670000Y-127508000D03*
X218186000Y-127508000D03*
X253238000Y-127508000D03*
X177800000Y-127508000D03*
X93981099Y-127464977D03*
X93980000Y-123190000D03*
X88138000Y-122682000D03*
%TO.N,/ROW14*%
X222504000Y-125222000D03*
X180848000Y-125222000D03*
X254508000Y-125222000D03*
X157480000Y-125222000D03*
X116586000Y-125222000D03*
X170180000Y-125222000D03*
X93205207Y-125273175D03*
X88138000Y-129032000D03*
X92710000Y-129032000D03*
%TO.N,/ROW10*%
X222758000Y-128270000D03*
X258318000Y-128270000D03*
X184150000Y-128270000D03*
X160020000Y-128270000D03*
X119126000Y-128270000D03*
X97536000Y-128270000D03*
X97028000Y-118110000D03*
%TO.N,/ROW9*%
X225806000Y-129032000D03*
X161290000Y-129032000D03*
X120142000Y-129032000D03*
X180340000Y-129032000D03*
X95758000Y-116332000D03*
X96774000Y-129032000D03*
%TO.N,/ROW8*%
X177800000Y-129794000D03*
X181610000Y-129794000D03*
X158750000Y-129794000D03*
X117602000Y-129794000D03*
X223266010Y-129794000D03*
X96012000Y-129794000D03*
X88138000Y-118872000D03*
X94996000Y-118872000D03*
%TO.N,/ROW13*%
X173736000Y-125984000D03*
X220726000Y-125984000D03*
X115062000Y-125984000D03*
X156210000Y-125984000D03*
%TO.N,/COM2*%
X110998000Y-123190000D03*
%TO.N,/ROW6*%
X172720000Y-131318000D03*
X243078000Y-131318000D03*
X143510000Y-131318000D03*
X166370000Y-131318000D03*
X101092000Y-131318000D03*
X206756000Y-131318000D03*
%TO.N,/ROW5*%
X139700000Y-134620000D03*
X239268000Y-134620000D03*
X204216000Y-134620000D03*
X98552000Y-134620000D03*
X166116000Y-134620000D03*
X93218000Y-134620000D03*
%TO.N,/COM3*%
X197358000Y-123761510D03*
%TO.N,/COM4*%
X234950000Y-122682000D03*
%TO.N,/ROW7*%
X175260000Y-130556000D03*
X229362000Y-130556000D03*
X189992000Y-132842000D03*
X94234000Y-121412000D03*
X95250000Y-130556000D03*
%TO.N,/ROW15*%
X192278000Y-124460000D03*
X230886000Y-124460000D03*
X167640000Y-124460000D03*
X88138000Y-123952000D03*
%TO.N,+5V*%
X127761998Y-139700002D03*
%TO.N,GND*%
X133096000Y-120904000D03*
%TO.N,/COM5*%
X90424000Y-133604000D03*
X91440000Y-119570500D03*
%TO.N,/COM6*%
X90170000Y-114554000D03*
%TO.N,/COM7*%
X88900000Y-114554000D03*
%TO.N,/SDA*%
X131825996Y-141224000D03*
%TO.N,/SCL*%
X129032000Y-141224000D03*
%TD*%
D17*
%TO.N,/ROW0*%
X142748000Y-138938000D02*
X145034000Y-141224000D01*
X104140000Y-137922000D02*
X104648000Y-138430000D01*
X209296000Y-138430000D02*
X182118000Y-138430000D01*
X179324000Y-141224000D02*
X182118000Y-138430000D01*
X168910000Y-141224000D02*
X179324000Y-141224000D01*
X168910000Y-141224000D02*
X166370000Y-141224000D01*
X144780000Y-138430000D02*
X142240000Y-138430000D01*
X166878000Y-140716000D02*
X166370000Y-141224000D01*
X166878000Y-138938000D02*
X166878000Y-140716000D01*
X169418000Y-117602000D02*
X169418000Y-130556000D01*
X168148000Y-137668000D02*
X166878000Y-138938000D01*
X168148000Y-131826000D02*
X168148000Y-137668000D01*
X169418000Y-130556000D02*
X168148000Y-131826000D01*
X211074000Y-117602000D02*
X211074000Y-118618000D01*
X209804000Y-137922000D02*
X209296000Y-138430000D01*
X209804000Y-119888000D02*
X209804000Y-137922000D01*
X211074000Y-118618000D02*
X209804000Y-119888000D01*
X105410000Y-117602000D02*
X105410000Y-118618000D01*
X105410000Y-118618000D02*
X104140000Y-119888000D01*
X104140000Y-119888000D02*
X104140000Y-137922000D01*
X246126000Y-117602000D02*
X245872000Y-117602000D01*
X152654000Y-141224000D02*
X166370000Y-141224000D01*
X152908000Y-140970000D02*
X152654000Y-141224000D01*
X152654000Y-141224000D02*
X145034000Y-141224000D01*
X142748000Y-138938000D02*
X142240000Y-138430000D01*
X152908000Y-139700000D02*
X152908000Y-140970000D01*
X145288000Y-137922000D02*
X144780000Y-138430000D01*
X145288000Y-132080000D02*
X145288000Y-137922000D01*
X146558000Y-130810000D02*
X145288000Y-132080000D01*
X146558000Y-117602000D02*
X146558000Y-130810000D01*
X244094000Y-138430000D02*
X209296000Y-138430000D01*
X244856000Y-137668000D02*
X244094000Y-138430000D01*
X244856000Y-119888000D02*
X244856000Y-137668000D01*
X246126000Y-118618000D02*
X244856000Y-119888000D01*
X246126000Y-117602000D02*
X246126000Y-118618000D01*
X55880000Y-113792000D02*
X57150000Y-115062000D01*
X42164000Y-113792000D02*
X55880000Y-113792000D01*
X40894000Y-115062000D02*
X42164000Y-113792000D01*
X57150000Y-115062000D02*
X58420000Y-113792000D01*
X72136000Y-113792000D02*
X73406000Y-115062000D01*
X58420000Y-113792000D02*
X72136000Y-113792000D01*
X105410000Y-114300000D02*
X105410000Y-117602000D01*
X104902000Y-113792000D02*
X105410000Y-114300000D01*
X74676000Y-113792000D02*
X104902000Y-113792000D01*
X73406000Y-115062000D02*
X74676000Y-113792000D01*
%TO.N,/ROW1*%
X106680000Y-137160000D02*
X107188000Y-137668000D01*
X248666000Y-117602000D02*
X248666000Y-116586000D01*
X213614000Y-116586000D02*
X213614000Y-117602000D01*
X214122000Y-116078000D02*
X213614000Y-116586000D01*
X248158000Y-116078000D02*
X214122000Y-116078000D01*
X248666000Y-116586000D02*
X248158000Y-116078000D01*
X107950000Y-117602000D02*
X107950000Y-118618000D01*
X106680000Y-119888000D02*
X106680000Y-137160000D01*
X107950000Y-118618000D02*
X106680000Y-119888000D01*
X213614000Y-117602000D02*
X213614000Y-118618000D01*
X213614000Y-118618000D02*
X212344000Y-119888000D01*
X212344000Y-119888000D02*
X212344000Y-137160000D01*
X212344000Y-137160000D02*
X211836000Y-137668000D01*
X155448000Y-139192000D02*
X155448000Y-139700000D01*
X147828000Y-137160000D02*
X147320000Y-137668000D01*
X147828000Y-132334000D02*
X147828000Y-137160000D01*
X170688000Y-137160000D02*
X170180000Y-137668000D01*
X170688000Y-132080000D02*
X170688000Y-137160000D01*
X149098000Y-131064000D02*
X147828000Y-132334000D01*
X171958000Y-130810000D02*
X170688000Y-132080000D01*
X149098000Y-117602000D02*
X149098000Y-131064000D01*
X171958000Y-117602000D02*
X171958000Y-130810000D01*
%TO.N,/ROW2*%
X105410000Y-136398000D02*
X105918000Y-136906000D01*
X157988000Y-139700000D02*
X157988000Y-138684000D01*
X146050000Y-137922000D02*
X146050000Y-136906000D01*
X146558000Y-138430000D02*
X146050000Y-137922000D01*
X157734000Y-138430000D02*
X146558000Y-138430000D01*
X157988000Y-138684000D02*
X157734000Y-138430000D01*
X146558000Y-132842000D02*
X146558000Y-136398000D01*
X146558000Y-136398000D02*
X146050000Y-136906000D01*
X169418000Y-132842000D02*
X169418000Y-136398000D01*
X169418000Y-136398000D02*
X168910000Y-136906000D01*
X105410000Y-132842000D02*
X105410000Y-136398000D01*
X211074000Y-136398000D02*
X210566000Y-136906000D01*
X211074000Y-132842000D02*
X211074000Y-136398000D01*
X105410000Y-120650000D02*
X104902000Y-120142000D01*
X105410000Y-132842000D02*
X105410000Y-120650000D01*
%TO.N,/ROW4*%
X163068000Y-139700000D02*
X163068000Y-138684000D01*
X164846000Y-136906000D02*
X164846000Y-135382000D01*
X163068000Y-138684000D02*
X164846000Y-136906000D01*
X205994000Y-132842000D02*
X205994000Y-134874000D01*
X205994000Y-134874000D02*
X205486000Y-135382000D01*
X100330000Y-132842000D02*
X100330000Y-134874000D01*
X100330000Y-134874000D02*
X99822000Y-135382000D01*
X141478000Y-134874000D02*
X140970000Y-135382000D01*
X164338000Y-134874000D02*
X164846000Y-135382000D01*
X141478000Y-132842000D02*
X141478000Y-134874000D01*
X164338000Y-132842000D02*
X164338000Y-134874000D01*
%TO.N,/ROW3*%
X208534000Y-132842000D02*
X208534000Y-135636000D01*
X208534000Y-135636000D02*
X208026000Y-136144000D01*
X102870000Y-132842000D02*
X102870000Y-135636000D01*
X102870000Y-135636000D02*
X102362000Y-136144000D01*
X160528000Y-139700000D02*
X160528000Y-136652000D01*
X160528000Y-136652000D02*
X160020000Y-136144000D01*
X166878000Y-135636000D02*
X166370000Y-136144000D01*
X144018000Y-135636000D02*
X143510000Y-136144000D01*
X166878000Y-132842000D02*
X166878000Y-135636000D01*
X144018000Y-132842000D02*
X144018000Y-135636000D01*
X68580000Y-126492000D02*
X69850000Y-127762000D01*
X54864000Y-126492000D02*
X68580000Y-126492000D01*
X53594000Y-127762000D02*
X54864000Y-126492000D01*
X69850000Y-127762000D02*
X71120000Y-126492000D01*
X84836000Y-126492000D02*
X86106000Y-127762000D01*
X71120000Y-126492000D02*
X84836000Y-126492000D01*
X93980002Y-135636002D02*
X94488000Y-136144000D01*
X93980002Y-135636002D02*
X93980002Y-128778000D01*
%TO.N,/ROW12*%
X216154000Y-132842000D02*
X216154000Y-127254000D01*
X216154000Y-127254000D02*
X215646000Y-126746000D01*
X251206000Y-132842000D02*
X251206000Y-127254000D01*
X251206000Y-127254000D02*
X250698000Y-126746000D01*
X174498000Y-132842000D02*
X174498000Y-127508000D01*
X174498000Y-127508000D02*
X175260000Y-126746000D01*
X151638000Y-132842000D02*
X151638000Y-127254000D01*
X151638000Y-127254000D02*
X151130000Y-126746000D01*
X110490000Y-132842000D02*
X110490000Y-127254000D01*
X110490000Y-127254000D02*
X109982000Y-126746000D01*
X175768000Y-121920000D02*
X175768000Y-126238000D01*
X175768000Y-126238000D02*
X175260000Y-126746000D01*
%TO.N,/ROW11*%
X177038000Y-132842000D02*
X177038000Y-128270000D01*
X177038000Y-128270000D02*
X177800000Y-127508000D01*
X113030000Y-132842000D02*
X113030000Y-128016000D01*
X113030000Y-128016000D02*
X112522000Y-127508000D01*
X154178000Y-132842000D02*
X154178000Y-128016000D01*
X154178000Y-128016000D02*
X153670000Y-127508000D01*
X218694000Y-132842000D02*
X218694000Y-128016000D01*
X218694000Y-128016000D02*
X218186000Y-127508000D01*
X253746000Y-132842000D02*
X253746000Y-128016000D01*
X253746000Y-128016000D02*
X253238000Y-127508000D01*
X178308000Y-121920000D02*
X178308000Y-127000000D01*
X178308000Y-127000000D02*
X177800000Y-127508000D01*
X53594000Y-122682000D02*
X54864000Y-121412000D01*
X68580000Y-121412000D02*
X69850000Y-122682000D01*
X54864000Y-121412000D02*
X68580000Y-121412000D01*
X84836000Y-121412000D02*
X86106000Y-122682000D01*
X71120000Y-121412000D02*
X84836000Y-121412000D01*
X69850000Y-122682000D02*
X71120000Y-121412000D01*
X86106000Y-122682000D02*
X88138000Y-122682000D01*
X93981099Y-123191099D02*
X93981099Y-127464977D01*
X93980000Y-123190000D02*
X93981099Y-123191099D01*
%TO.N,/ROW14*%
X256286000Y-131826000D02*
X256286000Y-127000000D01*
X256286000Y-127000000D02*
X255016000Y-125730000D01*
X221234000Y-132842000D02*
X221234000Y-126492000D01*
X221234000Y-126492000D02*
X222504000Y-125222000D01*
X179578000Y-132842000D02*
X179578000Y-126492000D01*
X179578000Y-126492000D02*
X180848000Y-125222000D01*
X256286000Y-132842000D02*
X256286000Y-131826000D01*
X255016000Y-125730000D02*
X254508000Y-125222000D01*
X156718000Y-132842000D02*
X156718000Y-131826000D01*
X156972000Y-125730000D02*
X157480000Y-125222000D01*
X156972000Y-131572000D02*
X156972000Y-125730000D01*
X156718000Y-131826000D02*
X156972000Y-131572000D01*
X115570000Y-132842000D02*
X115570000Y-131826000D01*
X116078000Y-125730000D02*
X116586000Y-125222000D01*
X116078000Y-131318000D02*
X116078000Y-125730000D01*
X115570000Y-131826000D02*
X116078000Y-131318000D01*
X170688000Y-121920000D02*
X170688000Y-124714000D01*
X170688000Y-124714000D02*
X170180000Y-125222000D01*
X55880000Y-129032000D02*
X57150000Y-130302000D01*
X42164000Y-129032000D02*
X55880000Y-129032000D01*
X40894000Y-130302000D02*
X42164000Y-129032000D01*
X57150000Y-130302000D02*
X58420000Y-129032000D01*
X72136000Y-129032000D02*
X73406000Y-130302000D01*
X58420000Y-129032000D02*
X72136000Y-129032000D01*
X73406000Y-130302000D02*
X74676000Y-129032000D01*
X74676000Y-129032000D02*
X88138000Y-129032000D01*
X92710000Y-129032000D02*
X93218000Y-128524000D01*
X93205207Y-128511207D02*
X93205207Y-125273175D01*
X93218000Y-128524000D02*
X93205207Y-128511207D01*
X92710000Y-129032000D02*
X92710000Y-129032000D01*
%TO.N,/ROW10*%
X258826000Y-131064000D02*
X258826000Y-128778000D01*
X258826000Y-132842000D02*
X258826000Y-131064000D01*
X258826000Y-128778000D02*
X258318000Y-128270000D01*
X183642000Y-128778000D02*
X184150000Y-128270000D01*
X178308000Y-139700000D02*
X179578000Y-138430000D01*
X182118000Y-135890000D02*
X182118000Y-132842000D01*
X179578000Y-138430000D02*
X182118000Y-135890000D01*
X159258000Y-132842000D02*
X159258000Y-131826000D01*
X160274000Y-128524000D02*
X160020000Y-128270000D01*
X160274000Y-130810000D02*
X160274000Y-128524000D01*
X159258000Y-131826000D02*
X160274000Y-130810000D01*
X118110000Y-132842000D02*
X118110000Y-131826000D01*
X119126000Y-130810000D02*
X119126000Y-128270000D01*
X118110000Y-131826000D02*
X119126000Y-130810000D01*
X182118000Y-131826000D02*
X183642000Y-130302000D01*
X182118000Y-132842000D02*
X182118000Y-131826000D01*
X183642000Y-130302000D02*
X183642000Y-128778000D01*
X258826000Y-132842000D02*
X258826000Y-132080000D01*
X223774000Y-132842000D02*
X222415101Y-131483101D01*
X222415101Y-131483101D02*
X222415101Y-128612899D01*
X222415101Y-128612899D02*
X222758000Y-128270000D01*
X53594000Y-117602000D02*
X54864000Y-116332000D01*
X68580000Y-116332000D02*
X69850000Y-117602000D01*
X54864000Y-116332000D02*
X68580000Y-116332000D01*
X69850000Y-117602000D02*
X71120000Y-116332000D01*
X84836000Y-116332000D02*
X86106000Y-117602000D01*
X71120000Y-116332000D02*
X84836000Y-116332000D01*
X97028000Y-118110000D02*
X97028000Y-127762000D01*
X97028000Y-127762000D02*
X97536000Y-128270000D01*
%TO.N,/ROW9*%
X184658000Y-117602000D02*
X184658000Y-118618000D01*
X182880000Y-129794000D02*
X180848000Y-131826000D01*
X182880000Y-120396000D02*
X182880000Y-129794000D01*
X184658000Y-118618000D02*
X182880000Y-120396000D01*
X226314000Y-117602000D02*
X226314000Y-128524000D01*
X226314000Y-128524000D02*
X225806000Y-129032000D01*
X161798000Y-117602000D02*
X161798000Y-128524000D01*
X161798000Y-128524000D02*
X161290000Y-129032000D01*
X120650000Y-117602000D02*
X120650000Y-128524000D01*
X120650000Y-128524000D02*
X120142000Y-129032000D01*
X177292000Y-138430000D02*
X178308000Y-138430000D01*
X178308000Y-138430000D02*
X180848000Y-135890000D01*
X180848000Y-135890000D02*
X180848000Y-131826000D01*
X180848000Y-131826000D02*
X180848000Y-129540000D01*
X180848000Y-129540000D02*
X180340000Y-129032000D01*
X177292000Y-138430000D02*
X176022000Y-139700000D01*
X175768000Y-139700000D02*
X176022000Y-139700000D01*
X175768000Y-139700000D02*
X175768000Y-139446000D01*
X96266000Y-116840000D02*
X96266000Y-128524000D01*
X96266000Y-128524000D02*
X96774000Y-129032000D01*
X96266000Y-116840000D02*
X95758000Y-116332000D01*
%TO.N,/ROW8*%
X178308000Y-130302000D02*
X177800000Y-129794000D01*
X182118000Y-129286000D02*
X181610000Y-129794000D01*
X174752000Y-138430000D02*
X175768000Y-138430000D01*
X175768000Y-138430000D02*
X178308000Y-135890000D01*
X178308000Y-135890000D02*
X178308000Y-130302000D01*
X174752000Y-138430000D02*
X173482000Y-139700000D01*
X159258000Y-117602000D02*
X159258000Y-129286000D01*
X159258000Y-129286000D02*
X158750000Y-129794000D01*
X173228000Y-139700000D02*
X173482000Y-139700000D01*
X182118000Y-117602000D02*
X182118000Y-129286000D01*
X118110000Y-117602000D02*
X118110000Y-129286000D01*
X118110000Y-129286000D02*
X117602000Y-129794000D01*
X173228000Y-139700000D02*
X173228000Y-139446000D01*
X173228000Y-139700000D02*
X173228000Y-139192000D01*
X223774000Y-129286010D02*
X223266010Y-129794000D01*
X223774000Y-117602000D02*
X223774000Y-129286010D01*
X55880000Y-118872000D02*
X57150000Y-120142000D01*
X42164000Y-118872000D02*
X55880000Y-118872000D01*
X40894000Y-120142000D02*
X42164000Y-118872000D01*
X57150000Y-120142000D02*
X58420000Y-118872000D01*
X72136000Y-118872000D02*
X73406000Y-120142000D01*
X58420000Y-118872000D02*
X72136000Y-118872000D01*
X94996000Y-118872000D02*
X94996000Y-118872000D01*
X95504000Y-119380000D02*
X95504000Y-129286000D01*
X74676000Y-118872000D02*
X88138000Y-118872000D01*
X73406000Y-120142000D02*
X74676000Y-118872000D01*
X95504000Y-129286000D02*
X96012000Y-129794000D01*
X94996000Y-118872000D02*
X95504000Y-119380000D01*
%TO.N,/ROW13*%
X173736000Y-125984000D02*
X173228000Y-125476000D01*
X173228000Y-125476000D02*
X173228000Y-121920000D01*
X221234000Y-117602000D02*
X221234000Y-125476000D01*
X221234000Y-125476000D02*
X220726000Y-125984000D01*
X179578000Y-117602000D02*
X179578000Y-118618000D01*
X173228000Y-120904000D02*
X173228000Y-121920000D01*
X173736000Y-120396000D02*
X173228000Y-120904000D01*
X177800000Y-120396000D02*
X173736000Y-120396000D01*
X179578000Y-118618000D02*
X177800000Y-120396000D01*
X115570000Y-117602000D02*
X115570000Y-125476000D01*
X115570000Y-125476000D02*
X115062000Y-125984000D01*
X156718000Y-117602000D02*
X156718000Y-125476000D01*
X156718000Y-125476000D02*
X156210000Y-125984000D01*
%TO.N,/COM2*%
X110490000Y-117602000D02*
X113030000Y-117602000D01*
X110490000Y-117602000D02*
X110490000Y-122682000D01*
X110490000Y-122682000D02*
X110998000Y-123190000D01*
%TO.N,/ROW6*%
X172720000Y-131318000D02*
X173228000Y-131826000D01*
X169926000Y-138430000D02*
X170688000Y-138430000D01*
X170688000Y-138430000D02*
X173228000Y-135890000D01*
X173228000Y-135890000D02*
X173228000Y-131826000D01*
X169926000Y-138430000D02*
X168656000Y-139700000D01*
X243586000Y-130810000D02*
X243078000Y-131318000D01*
X243586000Y-118618000D02*
X243586000Y-130810000D01*
X144018000Y-117602000D02*
X144018000Y-118618000D01*
X144018000Y-130810000D02*
X143510000Y-131318000D01*
X144018000Y-118618000D02*
X144018000Y-130810000D01*
X166878000Y-117602000D02*
X166878000Y-130810000D01*
X166878000Y-130810000D02*
X166370000Y-131318000D01*
X208534000Y-117602000D02*
X208534000Y-118618000D01*
X208534000Y-118618000D02*
X207264000Y-119888000D01*
X207264000Y-119888000D02*
X207264000Y-130810000D01*
X207264000Y-130810000D02*
X206756000Y-131318000D01*
X101600000Y-130810000D02*
X101092000Y-131318000D01*
X101600000Y-119888000D02*
X101600000Y-130810000D01*
X102870000Y-118618000D02*
X101600000Y-119888000D01*
X168148000Y-139700000D02*
X168656000Y-139700000D01*
X243586000Y-117602000D02*
X243586000Y-118618000D01*
X102870000Y-117602000D02*
X102870000Y-118618000D01*
X243586000Y-117602000D02*
X243586000Y-118110000D01*
X168148000Y-139700000D02*
X168148000Y-139446000D01*
%TO.N,/ROW5*%
X140208000Y-134112000D02*
X139700000Y-134620000D01*
X140208000Y-119888000D02*
X140208000Y-134112000D01*
X141478000Y-118618000D02*
X140208000Y-119888000D01*
X141478000Y-117602000D02*
X141478000Y-118618000D01*
X164338000Y-130810000D02*
X165608000Y-132080000D01*
X164338000Y-117602000D02*
X164338000Y-130810000D01*
X165608000Y-134112000D02*
X166116000Y-134620000D01*
X165608000Y-132080000D02*
X165608000Y-134112000D01*
X99060000Y-134112000D02*
X98552000Y-134620000D01*
X99060000Y-119888000D02*
X99060000Y-134112000D01*
X165608000Y-135128000D02*
X166116000Y-134620000D01*
X100330000Y-118618000D02*
X99060000Y-119888000D01*
X241046000Y-117602000D02*
X241046000Y-118618000D01*
X239776000Y-134112000D02*
X239268000Y-134620000D01*
X239776000Y-119888000D02*
X239776000Y-134112000D01*
X241046000Y-118618000D02*
X239776000Y-119888000D01*
X205994000Y-117602000D02*
X205994000Y-118618000D01*
X204724000Y-134112000D02*
X204216000Y-134620000D01*
X204724000Y-119888000D02*
X204724000Y-134112000D01*
X205994000Y-118618000D02*
X204724000Y-119888000D01*
X100330000Y-117602000D02*
X100330000Y-118618000D01*
X165608000Y-135128000D02*
X165608000Y-139700000D01*
X55880000Y-136652000D02*
X57150000Y-135382000D01*
X42164000Y-136652000D02*
X55880000Y-136652000D01*
X40894000Y-135382000D02*
X42164000Y-136652000D01*
X57150000Y-135382000D02*
X58420000Y-136652000D01*
X72136000Y-136652000D02*
X73406000Y-135382000D01*
X58420000Y-136652000D02*
X72136000Y-136652000D01*
X73406000Y-135382000D02*
X74676000Y-136652000D01*
X93218000Y-134620000D02*
X92710000Y-135128000D01*
X92710000Y-135128000D02*
X92710000Y-136144000D01*
X92710000Y-136144000D02*
X92202000Y-136652000D01*
X74676000Y-136652000D02*
X92202000Y-136652000D01*
%TO.N,/COM1*%
X177038000Y-117602000D02*
X174498000Y-117602000D01*
X150368000Y-121920000D02*
X150368000Y-120650000D01*
X150368000Y-120650000D02*
X151638000Y-119380000D01*
X151638000Y-119380000D02*
X154432000Y-119380000D01*
X154432000Y-119380000D02*
X155448000Y-118364000D01*
X155448000Y-118364000D02*
X155448000Y-116840000D01*
X155448000Y-116840000D02*
X156210000Y-116078000D01*
X156210000Y-116078000D02*
X172974000Y-116078000D01*
X172974000Y-116078000D02*
X174498000Y-117602000D01*
%TO.N,/COM0*%
X151638000Y-117602000D02*
X154178000Y-117602000D01*
X147828000Y-121920000D02*
X147828000Y-116840000D01*
X150622000Y-116332000D02*
X151638000Y-117348000D01*
X148336000Y-116332000D02*
X150622000Y-116332000D01*
X147828000Y-116840000D02*
X148336000Y-116332000D01*
X151638000Y-117348000D02*
X151638000Y-117602000D01*
%TO.N,/COM3*%
X197358000Y-129794000D02*
X197358000Y-123761510D01*
X197358000Y-121158000D02*
X197358000Y-123761510D01*
%TO.N,/COM4*%
X234950000Y-130302000D02*
X234950000Y-120396000D01*
%TO.N,/ROW7*%
X170688000Y-139700000D02*
X171958000Y-138430000D01*
X175768000Y-131064000D02*
X175260000Y-130556000D01*
X175768000Y-135890000D02*
X175768000Y-131064000D01*
X173228000Y-138430000D02*
X175768000Y-135890000D01*
X171958000Y-138430000D02*
X173228000Y-138430000D01*
X232410000Y-120396000D02*
X230378000Y-120396000D01*
X229870000Y-130048000D02*
X229362000Y-130556000D01*
X229870000Y-120904000D02*
X229870000Y-130048000D01*
X230378000Y-120396000D02*
X229870000Y-120904000D01*
X194818000Y-121158000D02*
X191008000Y-121158000D01*
X190500000Y-132334000D02*
X189992000Y-132842000D01*
X190500000Y-121666000D02*
X190500000Y-132334000D01*
X191008000Y-121158000D02*
X190500000Y-121666000D01*
X194818000Y-121158000D02*
X194818000Y-121412000D01*
X94742000Y-130048000D02*
X95250000Y-130556000D01*
X94742000Y-121920000D02*
X94742000Y-130048000D01*
X94742000Y-121920000D02*
X94234000Y-121412000D01*
%TO.N,/ROW15*%
X194818000Y-129794000D02*
X193294000Y-129794000D01*
X192786000Y-124968000D02*
X192278000Y-124460000D01*
X192786000Y-129286000D02*
X192786000Y-124968000D01*
X193294000Y-129794000D02*
X192786000Y-129286000D01*
X232410000Y-130302000D02*
X231648000Y-130302000D01*
X231648000Y-130302000D02*
X231394000Y-130048000D01*
X231394000Y-130048000D02*
X231394000Y-124968000D01*
X231394000Y-124968000D02*
X230886000Y-124460000D01*
X168148000Y-123952000D02*
X167640000Y-124460000D01*
X168148000Y-123952000D02*
X168148000Y-121920000D01*
X55880000Y-123952000D02*
X57150000Y-125222000D01*
X42164000Y-123952000D02*
X55880000Y-123952000D01*
X40894000Y-125222000D02*
X42164000Y-123952000D01*
X57150000Y-125222000D02*
X58420000Y-123952000D01*
X72136000Y-123952000D02*
X73406000Y-125222000D01*
X58420000Y-123952000D02*
X72136000Y-123952000D01*
X73406000Y-125222000D02*
X74676000Y-123952000D01*
X74676000Y-123952000D02*
X88138000Y-123952000D01*
%TO.N,+5V*%
X127096000Y-139034004D02*
X127761998Y-139700002D01*
X127096000Y-112014000D02*
X127096000Y-139034004D01*
%TO.N,GND*%
X133096000Y-120904000D02*
X133096000Y-112014000D01*
%TO.N,/COM5*%
X90424000Y-120586500D02*
X91440000Y-119570500D01*
X90424000Y-133604000D02*
X90424000Y-120586500D01*
%TO.N,/COM6*%
X69850000Y-132842000D02*
X71120000Y-134112000D01*
X71120000Y-134112000D02*
X88900000Y-134112000D01*
X88900000Y-134112000D02*
X89154000Y-134112000D01*
X89154000Y-134112000D02*
X89662000Y-133604000D01*
X89662000Y-133604000D02*
X89662000Y-115062000D01*
X89662000Y-115062000D02*
X90170000Y-114554000D01*
X90170000Y-114554000D02*
X90170000Y-114554000D01*
%TO.N,/COM7*%
X88392000Y-132842000D02*
X88138000Y-132842000D01*
X88138000Y-132842000D02*
X86106000Y-132842000D01*
X88900000Y-132334000D02*
X88392000Y-132842000D01*
X88900000Y-114554000D02*
X88900000Y-132334000D01*
%TO.N,/SDA*%
X131096000Y-112014000D02*
X131096000Y-140494004D01*
X131096000Y-140494004D02*
X131825996Y-141224000D01*
%TO.N,/SCL*%
X129032000Y-112078000D02*
X129096000Y-112014000D01*
X129032000Y-141224000D02*
X129032000Y-112078000D01*
%TD*%
M02*
